M48
;DRILL file {KiCad 4.0.7} date 01/03/18 22:13:43
;FORMAT={3:3/ absolute / metric / suppress leading zeros}
FMAT,2
METRIC,TZ
T1C0.400
T2C1.000
T3C1.016
T4C1.400
T5C3.048
%
G90
G05
M71
T1
X128524Y-65659
X137922Y-135001
X148082Y-65405
X156464Y-134493
X156718Y-121793
X157734Y-104775
X158242Y-82169
X164084Y-84709
X167386Y-65405
X167386Y-92075
X175768Y-134747
X177038Y-94869
X181356Y-129921
X182880Y-72009
X182880Y-92075
X185928Y-65151
X187198Y-75311
X187198Y-114427
X187452Y-94361
X188468Y-132207
T2
X164338Y-118745
X166878Y-118745
X169418Y-118745
X171958Y-118745
X173990Y-81407
X173990Y-83947
X177800Y-81407
X177800Y-83947
T3
X129794Y-75565
X132334Y-75565
X134874Y-75565
X137414Y-75565
X138938Y-123825
X139954Y-75565
X141478Y-123825
X142494Y-75565
X144018Y-123825
X145034Y-75565
X146558Y-123825
X147574Y-75565
X149098Y-123825
X150114Y-75565
X151638Y-123825
X152654Y-75565
X154178Y-123825
X156718Y-75565
X156718Y-123825
X159258Y-75565
X161798Y-75565
X161798Y-123825
X164338Y-75565
X164338Y-123825
X166878Y-75565
X166878Y-123825
X169418Y-75565
X169418Y-123825
X171958Y-75565
X171958Y-123825
X174498Y-75565
X174498Y-123825
T4
X128270Y-55753
X128778Y-85725
X128778Y-90805
X128778Y-97663
X128778Y-102743
X128778Y-109855
X128778Y-114935
X132588Y-144399
X133350Y-55753
X137668Y-144399
X147320Y-55753
X151384Y-144399
X152400Y-55753
X156464Y-144399
X166370Y-55753
X170180Y-144399
X171450Y-55753
X175260Y-144399
X185674Y-55753
X190754Y-55753
X197612Y-76073
X197612Y-81153
X197612Y-94869
X197612Y-99949
X197612Y-113665
X197612Y-118745
X197612Y-132461
X197612Y-137541
T5
X124968Y-123825
X126238Y-75565
X177038Y-90805
X177038Y-118745
T0
M30
