(export (version D)
  (design
    (source C:/Users/loren/dev/timeLamps/electrics/electrics.sch)
    (date "03/01/2018 20:17:51")
    (tool "Eeschema 4.0.7")
    (sheet (number 1) (name /) (tstamps /)
      (title_block
        (title)
        (company)
        (rev)
        (date "lun. 30 mars 2015")
        (source electrics.sch)
        (comment (number 1) (value ""))
        (comment (number 2) (value ""))
        (comment (number 3) (value ""))
        (comment (number 4) (value ""))))
    (sheet (number 2) (name /Lamps/) (tstamps /5A4800CD/)
      (title_block
        (title)
        (company)
        (rev)
        (date)
        (source Lamps.sch)
        (comment (number 1) (value ""))
        (comment (number 2) (value ""))
        (comment (number 3) (value ""))
        (comment (number 4) (value "")))))
  (components
    (comp (ref P1)
      (value Power)
      (footprint Socket_Arduino_Uno:Socket_Strip_Arduino_1x08)
      (libsource (lib electrics-cache) (part CONN_01X08))
      (sheetpath (names /) (tstamps /))
      (tstamp 56D70129))
    (comp (ref P2)
      (value Analog)
      (footprint Socket_Arduino_Uno:Socket_Strip_Arduino_1x06)
      (libsource (lib electrics-cache) (part CONN_01X06))
      (sheetpath (names /) (tstamps /))
      (tstamp 56D70DD8))
    (comp (ref P5)
      (value CONN_01X01)
      (footprint Socket_Arduino_Uno:Arduino_1pin)
      (libsource (lib electrics-cache) (part CONN_01X01))
      (sheetpath (names /) (tstamps /))
      (tstamp 56D71177))
    (comp (ref P6)
      (value CONN_01X01)
      (footprint Socket_Arduino_Uno:Arduino_1pin)
      (libsource (lib electrics-cache) (part CONN_01X01))
      (sheetpath (names /) (tstamps /))
      (tstamp 56D71274))
    (comp (ref P7)
      (value CONN_01X01)
      (footprint Socket_Arduino_Uno:Arduino_1pin)
      (libsource (lib electrics-cache) (part CONN_01X01))
      (sheetpath (names /) (tstamps /))
      (tstamp 56D712A8))
    (comp (ref P8)
      (value CONN_01X01)
      (footprint Socket_Arduino_Uno:Arduino_1pin)
      (libsource (lib electrics-cache) (part CONN_01X01))
      (sheetpath (names /) (tstamps /))
      (tstamp 56D712DB))
    (comp (ref P4)
      (value Digital)
      (footprint Socket_Arduino_Uno:Socket_Strip_Arduino_1x08)
      (libsource (lib electrics-cache) (part CONN_01X08))
      (sheetpath (names /) (tstamps /))
      (tstamp 56D7164F))
    (comp (ref P3)
      (value Digital)
      (footprint Socket_Arduino_Uno:Socket_Strip_Arduino_1x10)
      (libsource (lib electrics-cache) (part CONN_01X10))
      (sheetpath (names /) (tstamps /))
      (tstamp 56D721E0))
    (comp (ref R1)
      (value 220k)
      (footprint Resistors_SMD:R_1206_HandSoldering)
      (libsource (lib device) (part R))
      (sheetpath (names /) (tstamps /))
      (tstamp 5A44DBB3))
    (comp (ref R2)
      (value 220k)
      (footprint Resistors_SMD:R_1206_HandSoldering)
      (libsource (lib device) (part R))
      (sheetpath (names /) (tstamps /))
      (tstamp 5A44DBDA))
    (comp (ref R4)
      (value 1k)
      (footprint Resistors_SMD:R_1206_HandSoldering)
      (libsource (lib device) (part R))
      (sheetpath (names /) (tstamps /))
      (tstamp 5A44DC21))
    (comp (ref R3)
      (value 22k)
      (footprint Resistors_SMD:R_1206_HandSoldering)
      (libsource (lib device) (part R))
      (sheetpath (names /) (tstamps /))
      (tstamp 5A44DC6E))
    (comp (ref R5)
      (value 4k7)
      (footprint Resistors_SMD:R_1206_HandSoldering)
      (libsource (lib device) (part R))
      (sheetpath (names /) (tstamps /))
      (tstamp 5A44DCCF))
    (comp (ref C1)
      (value 1nF)
      (footprint Capacitors_SMD:C_2220_HandSoldering)
      (libsource (lib device) (part C))
      (sheetpath (names /) (tstamps /))
      (tstamp 5A44DDD7))
    (comp (ref C2)
      (value 10uF)
      (footprint Capacitors_SMD:CP_Elec_4x5.3)
      (libsource (lib device) (part CP))
      (sheetpath (names /) (tstamps /))
      (tstamp 5A44DE26))
    (comp (ref D1)
      (value 1N4148)
      (footprint Diodes_SMD:D_SOD-323_HandSoldering)
      (libsource (lib device) (part D))
      (sheetpath (names /) (tstamps /))
      (tstamp 5A44DE67))
    (comp (ref D2)
      (value 1N4148)
      (footprint Diodes_SMD:D_SOD-323_HandSoldering)
      (libsource (lib device) (part D))
      (sheetpath (names /) (tstamps /))
      (tstamp 5A44DEE8))
    (comp (ref D3)
      (value 1N4148)
      (footprint Diodes_SMD:D_SOD-323_HandSoldering)
      (libsource (lib device) (part D))
      (sheetpath (names /) (tstamps /))
      (tstamp 5A44DF43))
    (comp (ref D4)
      (value 1N4148)
      (footprint Diodes_SMD:D_SOD-323_HandSoldering)
      (libsource (lib device) (part D))
      (sheetpath (names /) (tstamps /))
      (tstamp 5A44DFC5))
    (comp (ref D5)
      (value 1N4148)
      (footprint Diodes_SMD:D_SOD-323_HandSoldering)
      (libsource (lib device) (part D))
      (sheetpath (names /) (tstamps /))
      (tstamp 5A44E101))
    (comp (ref U1)
      (value 4N35S)
      (footprint Housings_DIP:DIP-6_W7.62mm_SMDSocket_SmallPads)
      (libsource (lib myParts) (part 4N35S))
      (sheetpath (names /) (tstamps /))
      (tstamp 5A44F5E8))
    (comp (ref Q1)
      (value MMBT3904)
      (footprint TO_SOT_Packages_SMD:SOT-23_Handsoldering)
      (libsource (lib transistors) (part MMBT3904))
      (sheetpath (names /) (tstamps /))
      (tstamp 5A463C1F))
    (comp (ref J1)
      (value Conn_01x04)
      (footprint Socket_Strips:Socket_Strip_Straight_1x04_Pitch2.54mm)
      (libsource (lib conn) (part Conn_01x04))
      (sheetpath (names /) (tstamps /))
      (tstamp 5A480015))
    (comp (ref J2)
      (value Screw_Terminal_01x02)
      (footprint myfootprints:PhoenixContact_MKDSN-G_02x5.08mm)
      (libsource (lib conn) (part Screw_Terminal_01x02))
      (sheetpath (names /) (tstamps /))
      (tstamp 5A48A269))
    (comp (ref J15)
      (value Screw_Terminal_01x02)
      (footprint myFootprints:PhoenixContact_MKDSN-G_02x5.08mm)
      (libsource (lib conn) (part Screw_Terminal_01x02))
      (sheetpath (names /) (tstamps /))
      (tstamp 5A4A6D02))
    (comp (ref R6)
      (value 330)
      (footprint Resistors_SMD:R_1206_HandSoldering)
      (libsource (lib device) (part R))
      (sheetpath (names /Lamps/) (tstamps /5A4800CD/))
      (tstamp 5A488E07))
    (comp (ref R7)
      (value 330)
      (footprint Resistors_SMD:R_1206_HandSoldering)
      (libsource (lib device) (part R))
      (sheetpath (names /Lamps/) (tstamps /5A4800CD/))
      (tstamp 5A488E33))
    (comp (ref Q2)
      (value MMBT3904)
      (footprint TO_SOT_Packages_SMD:SOT-23_Handsoldering)
      (libsource (lib transistors) (part MMBT3904))
      (sheetpath (names /Lamps/) (tstamps /5A4800CD/))
      (tstamp 5A488F68))
    (comp (ref U2)
      (value MOC3052M)
      (footprint Housings_DIP:DIP-6_W7.62mm_SMDSocket_SmallPads)
      (libsource (lib opto) (part MOC3052M))
      (sheetpath (names /Lamps/) (tstamps /5A4800CD/))
      (tstamp 5A488FA1))
    (comp (ref J3)
      (value Screw_Terminal_01x02)
      (footprint myfootprints:PhoenixContact_MKDSN-G_02x5.08mm)
      (libsource (lib conn) (part Screw_Terminal_01x02))
      (sheetpath (names /Lamps/) (tstamps /5A4800CD/))
      (tstamp 5A4891CC))
    (comp (ref R8)
      (value 330)
      (footprint Resistors_SMD:R_1206_HandSoldering)
      (libsource (lib device) (part R))
      (sheetpath (names /Lamps/) (tstamps /5A4800CD/))
      (tstamp 5A48A83B))
    (comp (ref R11)
      (value 330)
      (footprint Resistors_SMD:R_1206_HandSoldering)
      (libsource (lib device) (part R))
      (sheetpath (names /Lamps/) (tstamps /5A4800CD/))
      (tstamp 5A48A841))
    (comp (ref Q3)
      (value MMBT3904)
      (footprint TO_SOT_Packages_SMD:SOT-23_Handsoldering)
      (libsource (lib transistors) (part MMBT3904))
      (sheetpath (names /Lamps/) (tstamps /5A4800CD/))
      (tstamp 5A48A847))
    (comp (ref U3)
      (value MOC3052M)
      (footprint Housings_DIP:DIP-6_W7.62mm_SMDSocket_SmallPads)
      (libsource (lib opto) (part MOC3052M))
      (sheetpath (names /Lamps/) (tstamps /5A4800CD/))
      (tstamp 5A48A84D))
    (comp (ref J4)
      (value Screw_Terminal_01x02)
      (footprint myfootprints:PhoenixContact_MKDSN-G_02x5.08mm)
      (libsource (lib conn) (part Screw_Terminal_01x02))
      (sheetpath (names /Lamps/) (tstamps /5A4800CD/))
      (tstamp 5A48A859))
    (comp (ref R9)
      (value 330)
      (footprint Resistors_SMD:R_1206_HandSoldering)
      (libsource (lib device) (part R))
      (sheetpath (names /Lamps/) (tstamps /5A4800CD/))
      (tstamp 5A48ABBF))
    (comp (ref R12)
      (value 330)
      (footprint Resistors_SMD:R_1206_HandSoldering)
      (libsource (lib device) (part R))
      (sheetpath (names /Lamps/) (tstamps /5A4800CD/))
      (tstamp 5A48ABC5))
    (comp (ref Q4)
      (value MMBT3904)
      (footprint TO_SOT_Packages_SMD:SOT-23_Handsoldering)
      (libsource (lib transistors) (part MMBT3904))
      (sheetpath (names /Lamps/) (tstamps /5A4800CD/))
      (tstamp 5A48ABCB))
    (comp (ref U4)
      (value MOC3052M)
      (footprint Housings_DIP:DIP-6_W7.62mm_SMDSocket_SmallPads)
      (libsource (lib opto) (part MOC3052M))
      (sheetpath (names /Lamps/) (tstamps /5A4800CD/))
      (tstamp 5A48ABD1))
    (comp (ref J5)
      (value Screw_Terminal_01x02)
      (footprint myfootprints:PhoenixContact_MKDSN-G_02x5.08mm)
      (libsource (lib conn) (part Screw_Terminal_01x02))
      (sheetpath (names /Lamps/) (tstamps /5A4800CD/))
      (tstamp 5A48ABDD))
    (comp (ref R10)
      (value 330)
      (footprint Resistors_SMD:R_1206_HandSoldering)
      (libsource (lib device) (part R))
      (sheetpath (names /Lamps/) (tstamps /5A4800CD/))
      (tstamp 5A48ACDD))
    (comp (ref R13)
      (value 330)
      (footprint Resistors_SMD:R_1206_HandSoldering)
      (libsource (lib device) (part R))
      (sheetpath (names /Lamps/) (tstamps /5A4800CD/))
      (tstamp 5A48ACE3))
    (comp (ref Q5)
      (value MMBT3904)
      (footprint TO_SOT_Packages_SMD:SOT-23_Handsoldering)
      (libsource (lib transistors) (part MMBT3904))
      (sheetpath (names /Lamps/) (tstamps /5A4800CD/))
      (tstamp 5A48ACE9))
    (comp (ref U5)
      (value MOC3052M)
      (footprint Housings_DIP:DIP-6_W7.62mm_SMDSocket_SmallPads)
      (libsource (lib opto) (part MOC3052M))
      (sheetpath (names /Lamps/) (tstamps /5A4800CD/))
      (tstamp 5A48ACEF))
    (comp (ref J6)
      (value Screw_Terminal_01x02)
      (footprint myfootprints:PhoenixContact_MKDSN-G_02x5.08mm)
      (libsource (lib conn) (part Screw_Terminal_01x02))
      (sheetpath (names /Lamps/) (tstamps /5A4800CD/))
      (tstamp 5A48ACFB))
    (comp (ref R14)
      (value 330)
      (footprint Resistors_SMD:R_1206_HandSoldering)
      (libsource (lib device) (part R))
      (sheetpath (names /Lamps/) (tstamps /5A4800CD/))
      (tstamp 5A48B68E))
    (comp (ref R18)
      (value 330)
      (footprint Resistors_SMD:R_1206_HandSoldering)
      (libsource (lib device) (part R))
      (sheetpath (names /Lamps/) (tstamps /5A4800CD/))
      (tstamp 5A48B694))
    (comp (ref Q6)
      (value MMBT3904)
      (footprint TO_SOT_Packages_SMD:SOT-23_Handsoldering)
      (libsource (lib transistors) (part MMBT3904))
      (sheetpath (names /Lamps/) (tstamps /5A4800CD/))
      (tstamp 5A48B69A))
    (comp (ref U6)
      (value MOC3052M)
      (footprint Housings_DIP:DIP-6_W7.62mm_SMDSocket_SmallPads)
      (libsource (lib opto) (part MOC3052M))
      (sheetpath (names /Lamps/) (tstamps /5A4800CD/))
      (tstamp 5A48B6A0))
    (comp (ref J7)
      (value Screw_Terminal_01x02)
      (footprint myfootprints:PhoenixContact_MKDSN-G_02x5.08mm)
      (libsource (lib conn) (part Screw_Terminal_01x02))
      (sheetpath (names /Lamps/) (tstamps /5A4800CD/))
      (tstamp 5A48B6AC))
    (comp (ref R15)
      (value 330)
      (footprint Resistors_SMD:R_1206_HandSoldering)
      (libsource (lib device) (part R))
      (sheetpath (names /Lamps/) (tstamps /5A4800CD/))
      (tstamp 5A48B6CF))
    (comp (ref R19)
      (value 330)
      (footprint Resistors_SMD:R_1206_HandSoldering)
      (libsource (lib device) (part R))
      (sheetpath (names /Lamps/) (tstamps /5A4800CD/))
      (tstamp 5A48B6D5))
    (comp (ref Q7)
      (value MMBT3904)
      (footprint TO_SOT_Packages_SMD:SOT-23_Handsoldering)
      (libsource (lib transistors) (part MMBT3904))
      (sheetpath (names /Lamps/) (tstamps /5A4800CD/))
      (tstamp 5A48B6DB))
    (comp (ref U7)
      (value MOC3052M)
      (footprint Housings_DIP:DIP-6_W7.62mm_SMDSocket_SmallPads)
      (libsource (lib opto) (part MOC3052M))
      (sheetpath (names /Lamps/) (tstamps /5A4800CD/))
      (tstamp 5A48B6E1))
    (comp (ref J8)
      (value Screw_Terminal_01x02)
      (footprint myfootprints:PhoenixContact_MKDSN-G_02x5.08mm)
      (libsource (lib conn) (part Screw_Terminal_01x02))
      (sheetpath (names /Lamps/) (tstamps /5A4800CD/))
      (tstamp 5A48B6ED))
    (comp (ref R16)
      (value 330)
      (footprint Resistors_SMD:R_1206_HandSoldering)
      (libsource (lib device) (part R))
      (sheetpath (names /Lamps/) (tstamps /5A4800CD/))
      (tstamp 5A48B70F))
    (comp (ref R20)
      (value 330)
      (footprint Resistors_SMD:R_1206_HandSoldering)
      (libsource (lib device) (part R))
      (sheetpath (names /Lamps/) (tstamps /5A4800CD/))
      (tstamp 5A48B715))
    (comp (ref Q8)
      (value MMBT3904)
      (footprint TO_SOT_Packages_SMD:SOT-23_Handsoldering)
      (libsource (lib transistors) (part MMBT3904))
      (sheetpath (names /Lamps/) (tstamps /5A4800CD/))
      (tstamp 5A48B71B))
    (comp (ref U8)
      (value MOC3052M)
      (footprint Housings_DIP:DIP-6_W7.62mm_SMDSocket_SmallPads)
      (libsource (lib opto) (part MOC3052M))
      (sheetpath (names /Lamps/) (tstamps /5A4800CD/))
      (tstamp 5A48B721))
    (comp (ref J9)
      (value Screw_Terminal_01x02)
      (footprint myfootprints:PhoenixContact_MKDSN-G_02x5.08mm)
      (libsource (lib conn) (part Screw_Terminal_01x02))
      (sheetpath (names /Lamps/) (tstamps /5A4800CD/))
      (tstamp 5A48B72D))
    (comp (ref R17)
      (value 330)
      (footprint Resistors_SMD:R_1206_HandSoldering)
      (libsource (lib device) (part R))
      (sheetpath (names /Lamps/) (tstamps /5A4800CD/))
      (tstamp 5A48B74F))
    (comp (ref R21)
      (value 330)
      (footprint Resistors_SMD:R_1206_HandSoldering)
      (libsource (lib device) (part R))
      (sheetpath (names /Lamps/) (tstamps /5A4800CD/))
      (tstamp 5A48B755))
    (comp (ref Q9)
      (value MMBT3904)
      (footprint TO_SOT_Packages_SMD:SOT-23_Handsoldering)
      (libsource (lib transistors) (part MMBT3904))
      (sheetpath (names /Lamps/) (tstamps /5A4800CD/))
      (tstamp 5A48B75B))
    (comp (ref U9)
      (value MOC3052M)
      (footprint Housings_DIP:DIP-6_W7.62mm_SMDSocket_SmallPads)
      (libsource (lib opto) (part MOC3052M))
      (sheetpath (names /Lamps/) (tstamps /5A4800CD/))
      (tstamp 5A48B761))
    (comp (ref J10)
      (value Screw_Terminal_01x02)
      (footprint myfootprints:PhoenixContact_MKDSN-G_02x5.08mm)
      (libsource (lib conn) (part Screw_Terminal_01x02))
      (sheetpath (names /Lamps/) (tstamps /5A4800CD/))
      (tstamp 5A48B76D))
    (comp (ref R22)
      (value 330)
      (footprint Resistors_SMD:R_1206_HandSoldering)
      (libsource (lib device) (part R))
      (sheetpath (names /Lamps/) (tstamps /5A4800CD/))
      (tstamp 5A48BF93))
    (comp (ref R25)
      (value 330)
      (footprint Resistors_SMD:R_1206_HandSoldering)
      (libsource (lib device) (part R))
      (sheetpath (names /Lamps/) (tstamps /5A4800CD/))
      (tstamp 5A48BF99))
    (comp (ref Q10)
      (value MMBT3904)
      (footprint TO_SOT_Packages_SMD:SOT-23_Handsoldering)
      (libsource (lib transistors) (part MMBT3904))
      (sheetpath (names /Lamps/) (tstamps /5A4800CD/))
      (tstamp 5A48BF9F))
    (comp (ref U10)
      (value MOC3052M)
      (footprint Housings_DIP:DIP-6_W7.62mm_SMDSocket_SmallPads)
      (libsource (lib opto) (part MOC3052M))
      (sheetpath (names /Lamps/) (tstamps /5A4800CD/))
      (tstamp 5A48BFA5))
    (comp (ref J11)
      (value Screw_Terminal_01x02)
      (footprint myfootprints:PhoenixContact_MKDSN-G_02x5.08mm)
      (libsource (lib conn) (part Screw_Terminal_01x02))
      (sheetpath (names /Lamps/) (tstamps /5A4800CD/))
      (tstamp 5A48BFB1))
    (comp (ref R23)
      (value 330)
      (footprint Resistors_SMD:R_1206_HandSoldering)
      (libsource (lib device) (part R))
      (sheetpath (names /Lamps/) (tstamps /5A4800CD/))
      (tstamp 5A48C1DD))
    (comp (ref R26)
      (value 330)
      (footprint Resistors_SMD:R_1206_HandSoldering)
      (libsource (lib device) (part R))
      (sheetpath (names /Lamps/) (tstamps /5A4800CD/))
      (tstamp 5A48C1E3))
    (comp (ref Q11)
      (value MMBT3904)
      (footprint TO_SOT_Packages_SMD:SOT-23_Handsoldering)
      (libsource (lib transistors) (part MMBT3904))
      (sheetpath (names /Lamps/) (tstamps /5A4800CD/))
      (tstamp 5A48C1E9))
    (comp (ref U11)
      (value MOC3052M)
      (footprint Housings_DIP:DIP-6_W7.62mm_SMDSocket_SmallPads)
      (libsource (lib opto) (part MOC3052M))
      (sheetpath (names /Lamps/) (tstamps /5A4800CD/))
      (tstamp 5A48C1EF))
    (comp (ref J12)
      (value Screw_Terminal_01x02)
      (footprint myfootprints:PhoenixContact_MKDSN-G_02x5.08mm)
      (libsource (lib conn) (part Screw_Terminal_01x02))
      (sheetpath (names /Lamps/) (tstamps /5A4800CD/))
      (tstamp 5A48C1FB))
    (comp (ref R24)
      (value 330)
      (footprint Resistors_SMD:R_1206_HandSoldering)
      (libsource (lib device) (part R))
      (sheetpath (names /Lamps/) (tstamps /5A4800CD/))
      (tstamp 5A48C337))
    (comp (ref R27)
      (value 330)
      (footprint Resistors_SMD:R_1206_HandSoldering)
      (libsource (lib device) (part R))
      (sheetpath (names /Lamps/) (tstamps /5A4800CD/))
      (tstamp 5A48C33D))
    (comp (ref Q12)
      (value MMBT3904)
      (footprint TO_SOT_Packages_SMD:SOT-23_Handsoldering)
      (libsource (lib transistors) (part MMBT3904))
      (sheetpath (names /Lamps/) (tstamps /5A4800CD/))
      (tstamp 5A48C343))
    (comp (ref U12)
      (value MOC3052M)
      (footprint Housings_DIP:DIP-6_W7.62mm_SMDSocket_SmallPads)
      (libsource (lib opto) (part MOC3052M))
      (sheetpath (names /Lamps/) (tstamps /5A4800CD/))
      (tstamp 5A48C349))
    (comp (ref J13)
      (value Screw_Terminal_01x02)
      (footprint myfootprints:PhoenixContact_MKDSN-G_02x5.08mm)
      (libsource (lib conn) (part Screw_Terminal_01x02))
      (sheetpath (names /Lamps/) (tstamps /5A4800CD/))
      (tstamp 5A48C355))
    (comp (ref R28)
      (value 330)
      (footprint Resistors_SMD:R_1206_HandSoldering)
      (libsource (lib device) (part R))
      (sheetpath (names /Lamps/) (tstamps /5A4800CD/))
      (tstamp 5A48C695))
    (comp (ref R29)
      (value 330)
      (footprint Resistors_SMD:R_1206_HandSoldering)
      (libsource (lib device) (part R))
      (sheetpath (names /Lamps/) (tstamps /5A4800CD/))
      (tstamp 5A48C69B))
    (comp (ref Q13)
      (value MMBT3904)
      (footprint TO_SOT_Packages_SMD:SOT-23_Handsoldering)
      (libsource (lib transistors) (part MMBT3904))
      (sheetpath (names /Lamps/) (tstamps /5A4800CD/))
      (tstamp 5A48C6A1))
    (comp (ref U13)
      (value MOC3052M)
      (footprint Housings_DIP:DIP-6_W7.62mm_SMDSocket_SmallPads)
      (libsource (lib opto) (part MOC3052M))
      (sheetpath (names /Lamps/) (tstamps /5A4800CD/))
      (tstamp 5A48C6A7))
    (comp (ref J14)
      (value Screw_Terminal_01x02)
      (footprint myfootprints:PhoenixContact_MKDSN-G_02x5.08mm)
      (libsource (lib conn) (part Screw_Terminal_01x02))
      (sheetpath (names /Lamps/) (tstamps /5A4800CD/))
      (tstamp 5A48C6B3))
    (comp (ref D6)
      (value BT134W-600D)
      (footprint TO_SOT_Packages_SMD:SOT-223-3_TabPin2)
      (libsource (lib myParts) (part BT134W-600D))
      (sheetpath (names /Lamps/) (tstamps /5A4800CD/))
      (tstamp 5A4ADFD0))
    (comp (ref D7)
      (value BT134W-600D)
      (footprint TO_SOT_Packages_SMD:SOT-223-3_TabPin2)
      (libsource (lib myParts) (part BT134W-600D))
      (sheetpath (names /Lamps/) (tstamps /5A4800CD/))
      (tstamp 5A4AE4AC))
    (comp (ref D8)
      (value BT134W-600D)
      (footprint TO_SOT_Packages_SMD:SOT-223-3_TabPin2)
      (libsource (lib myParts) (part BT134W-600D))
      (sheetpath (names /Lamps/) (tstamps /5A4800CD/))
      (tstamp 5A4AE596))
    (comp (ref D9)
      (value BT134W-600D)
      (footprint TO_SOT_Packages_SMD:SOT-223-3_TabPin2)
      (libsource (lib myParts) (part BT134W-600D))
      (sheetpath (names /Lamps/) (tstamps /5A4800CD/))
      (tstamp 5A4AE67F))
    (comp (ref D13)
      (value BT134W-600D)
      (footprint TO_SOT_Packages_SMD:SOT-223-3_TabPin2)
      (libsource (lib myParts) (part BT134W-600D))
      (sheetpath (names /Lamps/) (tstamps /5A4800CD/))
      (tstamp 5A4AE9C1))
    (comp (ref D12)
      (value BT134W-600D)
      (footprint TO_SOT_Packages_SMD:SOT-223-3_TabPin2)
      (libsource (lib myParts) (part BT134W-600D))
      (sheetpath (names /Lamps/) (tstamps /5A4800CD/))
      (tstamp 5A4AEA9E))
    (comp (ref D11)
      (value BT134W-600D)
      (footprint TO_SOT_Packages_SMD:SOT-223-3_TabPin2)
      (libsource (lib myParts) (part BT134W-600D))
      (sheetpath (names /Lamps/) (tstamps /5A4800CD/))
      (tstamp 5A4AEC48))
    (comp (ref D10)
      (value BT134W-600D)
      (footprint TO_SOT_Packages_SMD:SOT-223-3_TabPin2)
      (libsource (lib myParts) (part BT134W-600D))
      (sheetpath (names /Lamps/) (tstamps /5A4800CD/))
      (tstamp 5A4AED6C))
    (comp (ref D14)
      (value BT134W-600D)
      (footprint TO_SOT_Packages_SMD:SOT-223-3_TabPin2)
      (libsource (lib myParts) (part BT134W-600D))
      (sheetpath (names /Lamps/) (tstamps /5A4800CD/))
      (tstamp 5A4AEE96))
    (comp (ref D15)
      (value BT134W-600D)
      (footprint TO_SOT_Packages_SMD:SOT-223-3_TabPin2)
      (libsource (lib myParts) (part BT134W-600D))
      (sheetpath (names /Lamps/) (tstamps /5A4800CD/))
      (tstamp 5A4AEF91))
    (comp (ref D16)
      (value BT134W-600D)
      (footprint TO_SOT_Packages_SMD:SOT-223-3_TabPin2)
      (libsource (lib myParts) (part BT134W-600D))
      (sheetpath (names /Lamps/) (tstamps /5A4800CD/))
      (tstamp 5A4AF26F))
    (comp (ref D17)
      (value BT134W-600D)
      (footprint TO_SOT_Packages_SMD:SOT-223-3_TabPin2)
      (libsource (lib myParts) (part BT134W-600D))
      (sheetpath (names /Lamps/) (tstamps /5A4800CD/))
      (tstamp 5A4AF35C))
    (comp (ref J16)
      (value Conn_01x02)
      (footprint Socket_Strips:Socket_Strip_Straight_1x02_Pitch2.54mm)
      (libsource (lib conn) (part Conn_01x02))
      (sheetpath (names /Lamps/) (tstamps /5A4800CD/))
      (tstamp 5A4D2C68))
    (comp (ref J17)
      (value Conn_01x02)
      (footprint Socket_Strips:Socket_Strip_Straight_1x02_Pitch2.54mm)
      (libsource (lib conn) (part Conn_01x02))
      (sheetpath (names /Lamps/) (tstamps /5A4800CD/))
      (tstamp 5A4D3A42)))
  (libparts
    (libpart (lib myParts) (part 4N35S)
      (description "DC Optocoupler Base Connected, Vce 80V, CTR 100%, Viso 5000V, DIP6-SMD")
      (docs https://www.distrelec.ch/Web/Downloads/_t/ds/4N2X-4N3X-H11AX_eng_tds.pdf)
      (footprints
        (fp DIP*W7.62mm*SMD*))
      (fields
        (field (name Reference) U)
        (field (name Value) 4N35S)
        (field (name Footprint) Housings_DIP-SMD:DIP-6_W7.62mm-SMD))
      (pins
        (pin (num 1) (name ~) (type passive))
        (pin (num 2) (name ~) (type passive))
        (pin (num 3) (name NC) (type NotConnected))
        (pin (num 4) (name ~) (type passive))
        (pin (num 5) (name ~) (type passive))
        (pin (num 6) (name ~) (type passive))))
    (libpart (lib transistors) (part BC817)
      (aliases
        (alias BC818)
        (alias BC847)
        (alias BC848)
        (alias BC849)
        (alias BC850)
        (alias MMBT3904))
      (description "45V Vce, 0.8A Ic, NPN, SOT-23")
      (docs http://www.fairchildsemi.com/ds/BC/BC817.pdf)
      (footprints
        (fp SOT?23*))
      (fields
        (field (name Reference) Q)
        (field (name Value) BC817)
        (field (name Footprint) TO_SOT_Packages_SMD:SOT-23))
      (pins
        (pin (num 1) (name B) (type input))
        (pin (num 2) (name E) (type passive))
        (pin (num 3) (name C) (type passive))))
    (libpart (lib myParts) (part BT134W-600D)
      (description "Triac SOT-223 600 V 1 A")
      (footprints
        (fp *SOT*223*SMD*))
      (fields
        (field (name Reference) D)
        (field (name Value) BT134W-600D))
      (pins
        (pin (num 1) (name A2) (type passive))
        (pin (num 2) (name A1) (type passive))
        (pin (num 3) (name G) (type input))))
    (libpart (lib device) (part C)
      (description "Unpolarized capacitor")
      (footprints
        (fp C_*))
      (fields
        (field (name Reference) C)
        (field (name Value) C))
      (pins
        (pin (num 1) (name ~) (type passive))
        (pin (num 2) (name ~) (type passive))))
    (libpart (lib electrics-cache) (part CONN_01X01)
      (footprints
        (fp Pin_Header_Straight_1X01)
        (fp Pin_Header_Angled_1X01)
        (fp Socket_Strip_Straight_1X01)
        (fp Socket_Strip_Angled_1X01))
      (fields
        (field (name Reference) P)
        (field (name Value) CONN_01X01))
      (pins
        (pin (num 1) (name P1) (type passive))))
    (libpart (lib electrics-cache) (part CONN_01X06)
      (footprints
        (fp Pin_Header_Straight_1X06)
        (fp Pin_Header_Angled_1X06)
        (fp Socket_Strip_Straight_1X06)
        (fp Socket_Strip_Angled_1X06))
      (fields
        (field (name Reference) P)
        (field (name Value) CONN_01X06))
      (pins
        (pin (num 1) (name P1) (type passive))
        (pin (num 2) (name P2) (type passive))
        (pin (num 3) (name P3) (type passive))
        (pin (num 4) (name P4) (type passive))
        (pin (num 5) (name P5) (type passive))
        (pin (num 6) (name P6) (type passive))))
    (libpart (lib electrics-cache) (part CONN_01X08)
      (footprints
        (fp Pin_Header_Straight_1X08)
        (fp Pin_Header_Angled_1X08)
        (fp Socket_Strip_Straight_1X08)
        (fp Socket_Strip_Angled_1X08))
      (fields
        (field (name Reference) P)
        (field (name Value) CONN_01X08))
      (pins
        (pin (num 1) (name P1) (type passive))
        (pin (num 2) (name P2) (type passive))
        (pin (num 3) (name P3) (type passive))
        (pin (num 4) (name P4) (type passive))
        (pin (num 5) (name P5) (type passive))
        (pin (num 6) (name P6) (type passive))
        (pin (num 7) (name P7) (type passive))
        (pin (num 8) (name P8) (type passive))))
    (libpart (lib electrics-cache) (part CONN_01X10)
      (footprints
        (fp Pin_Header_Straight_1X10)
        (fp Pin_Header_Angled_1X10)
        (fp Socket_Strip_Straight_1X10)
        (fp Socket_Strip_Angled_1X10))
      (fields
        (field (name Reference) P)
        (field (name Value) CONN_01X10))
      (pins
        (pin (num 1) (name P1) (type passive))
        (pin (num 2) (name P2) (type passive))
        (pin (num 3) (name P3) (type passive))
        (pin (num 4) (name P4) (type passive))
        (pin (num 5) (name P5) (type passive))
        (pin (num 6) (name P6) (type passive))
        (pin (num 7) (name P7) (type passive))
        (pin (num 8) (name P8) (type passive))
        (pin (num 9) (name P9) (type passive))
        (pin (num 10) (name P10) (type passive))))
    (libpart (lib device) (part CP)
      (description "Polarised capacitor")
      (footprints
        (fp CP_*))
      (fields
        (field (name Reference) C)
        (field (name Value) CP))
      (pins
        (pin (num 1) (name ~) (type passive))
        (pin (num 2) (name ~) (type passive))))
    (libpart (lib conn) (part Conn_01x02)
      (description "Generic connector, single row, 01x02")
      (docs ~)
      (footprints
        (fp Connector*:*_??x*mm*)
        (fp Connector*:*1x??x*mm*)
        (fp Pin?Header?Straight?1X*)
        (fp Pin?Header?Angled?1X*)
        (fp Socket?Strip?Straight?1X*)
        (fp Socket?Strip?Angled?1X*))
      (fields
        (field (name Reference) J)
        (field (name Value) Conn_01x02))
      (pins
        (pin (num 1) (name Pin_1) (type passive))
        (pin (num 2) (name Pin_2) (type passive))))
    (libpart (lib conn) (part Conn_01x04)
      (description "Generic connector, single row, 01x04")
      (docs ~)
      (footprints
        (fp Connector*:*_??x*mm*)
        (fp Connector*:*1x??x*mm*)
        (fp Pin?Header?Straight?1X*)
        (fp Pin?Header?Angled?1X*)
        (fp Socket?Strip?Straight?1X*)
        (fp Socket?Strip?Angled?1X*))
      (fields
        (field (name Reference) J)
        (field (name Value) Conn_01x04))
      (pins
        (pin (num 1) (name Pin_1) (type passive))
        (pin (num 2) (name Pin_2) (type passive))
        (pin (num 3) (name Pin_3) (type passive))
        (pin (num 4) (name Pin_4) (type passive))))
    (libpart (lib device) (part D)
      (description Diode)
      (footprints
        (fp TO-???*)
        (fp *SingleDiode)
        (fp *_Diode_*)
        (fp *SingleDiode*)
        (fp D_*))
      (fields
        (field (name Reference) D)
        (field (name Value) D))
      (pins
        (pin (num 1) (name K) (type passive))
        (pin (num 2) (name A) (type passive))))
    (libpart (lib opto) (part MOC3010M)
      (aliases
        (alias MOC3011M)
        (alias MOC3012M)
        (alias MOC3020M)
        (alias MOC3021M)
        (alias MOC3022M)
        (alias MOC3023M)
        (alias MOC3051M)
        (alias MOC3052M))
      (description "Random Phase Opto-Triac, Vdrm 250V, Ift 15mA, DIP6")
      (docs http://www.fairchildsemi.com/ds/MO/MOC3020M.pdf)
      (footprints
        (fp DIP*W7.62mm*)
        (fp DIP*W9.53mm*SMD*)
        (fp DIP*W10.16mm*))
      (fields
        (field (name Reference) U)
        (field (name Value) MOC3010M))
      (pins
        (pin (num 1) (name ~) (type passive))
        (pin (num 2) (name ~) (type passive))
        (pin (num 3) (name NC) (type NotConnected))
        (pin (num 4) (name ~) (type passive))
        (pin (num 5) (name NC) (type NotConnected))
        (pin (num 6) (name ~) (type passive))))
    (libpart (lib device) (part R)
      (description Resistor)
      (footprints
        (fp R_*)
        (fp R_*))
      (fields
        (field (name Reference) R)
        (field (name Value) R))
      (pins
        (pin (num 1) (name ~) (type passive))
        (pin (num 2) (name ~) (type passive))))
    (libpart (lib conn) (part Screw_Terminal_01x02)
      (description "Generic screw terminal, single row, 01x02")
      (docs ~)
      (footprints
        (fp Connector*Terminal*Block*:*)
        (fp TerminalBlock*))
      (fields
        (field (name Reference) J)
        (field (name Value) Screw_Terminal_01x02))
      (pins
        (pin (num 1) (name Pin_1) (type passive))
        (pin (num 2) (name Pin_2) (type passive)))))
  (libraries
    (library (logical device)
      (uri "C:\\Program Files\\KiCad\\share\\kicad\\library\\device.lib"))
    (library (logical transistors)
      (uri "C:\\Program Files\\KiCad\\share\\kicad\\library\\transistors.lib"))
    (library (logical conn)
      (uri "C:\\Program Files\\KiCad\\share\\kicad\\library\\conn.lib"))
    (library (logical opto)
      (uri "C:\\Program Files\\KiCad\\share\\kicad\\library\\opto.lib"))
    (library (logical myParts)
      (uri C:\Users\loren\dev\kicad_lib\myParts.lib))
    (library (logical electrics-cache)
      (uri C:\Users\loren\dev\timeLamps\electrics\electrics-cache.lib)))
  (nets
    (net (code 1) (name "Net-(D3-Pad2)")
      (node (ref R3) (pin 1))
      (node (ref D5) (pin 1))
      (node (ref D4) (pin 2))
      (node (ref D3) (pin 2))
      (node (ref Q1) (pin 1)))
    (net (code 2) (name "Net-(C2-Pad1)")
      (node (ref D1) (pin 1))
      (node (ref D2) (pin 1))
      (node (ref C2) (pin 1))
      (node (ref R3) (pin 2))
      (node (ref R4) (pin 2)))
    (net (code 3) (name "Net-(C1-Pad2)")
      (node (ref C1) (pin 2))
      (node (ref D3) (pin 1))
      (node (ref R2) (pin 1))
      (node (ref D2) (pin 2)))
    (net (code 4) (name "Net-(C1-Pad1)")
      (node (ref D1) (pin 2))
      (node (ref R1) (pin 1))
      (node (ref D4) (pin 1))
      (node (ref C1) (pin 1)))
    (net (code 5) (name "Net-(C2-Pad2)")
      (node (ref D5) (pin 2))
      (node (ref C2) (pin 2))
      (node (ref Q1) (pin 2)))
    (net (code 6) (name "Net-(R4-Pad1)")
      (node (ref U1) (pin 1))
      (node (ref R4) (pin 1)))
    (net (code 7) (name "Net-(Q1-Pad3)")
      (node (ref Q1) (pin 3))
      (node (ref U1) (pin 2)))
    (net (code 8) (name /Reset)
      (node (ref P1) (pin 3)))
    (net (code 9) (name /A0)
      (node (ref P2) (pin 1)))
    (net (code 10) (name "/A5(SCL)")
      (node (ref P3) (pin 1))
      (node (ref J1) (pin 3))
      (node (ref P2) (pin 6)))
    (net (code 11) (name "/A4(SDA)")
      (node (ref P3) (pin 2))
      (node (ref P2) (pin 5))
      (node (ref J1) (pin 2)))
    (net (code 12) (name /A3)
      (node (ref P2) (pin 4)))
    (net (code 13) (name /A2)
      (node (ref P2) (pin 3)))
    (net (code 14) (name /A1)
      (node (ref P2) (pin 2)))
    (net (code 15) (name /Vin)
      (node (ref P1) (pin 8))
      (node (ref J15) (pin 1)))
    (net (code 16) (name /2)
      (node (ref U1) (pin 5))
      (node (ref P4) (pin 6))
      (node (ref R5) (pin 1)))
    (net (code 17) (name /AREF)
      (node (ref P3) (pin 3)))
    (net (code 18) (name "/13(SCK)")
      (node (ref P3) (pin 5)))
    (net (code 20) (name "Net-(P1-Pad4)")
      (node (ref P1) (pin 4)))
    (net (code 21) (name /IOREF)
      (node (ref P1) (pin 2)))
    (net (code 22) (name "Net-(U1-Pad6)")
      (node (ref U1) (pin 6)))
    (net (code 23) (name "/12(MISO)")
      (node (ref P3) (pin 6))
      (node (ref Q13) (pin 1)))
    (net (code 24) (name "/11(**/MOSI)")
      (node (ref P3) (pin 7))
      (node (ref Q12) (pin 1)))
    (net (code 25) (name +5V)
      (node (ref R9) (pin 1))
      (node (ref R15) (pin 1))
      (node (ref J1) (pin 1))
      (node (ref R23) (pin 1))
      (node (ref R10) (pin 1))
      (node (ref R28) (pin 1))
      (node (ref R22) (pin 1))
      (node (ref R17) (pin 1))
      (node (ref R14) (pin 1))
      (node (ref R16) (pin 1))
      (node (ref R8) (pin 1))
      (node (ref R5) (pin 2))
      (node (ref R24) (pin 1))
      (node (ref R6) (pin 1))
      (node (ref P1) (pin 5)))
    (net (code 26) (name GND)
      (node (ref Q3) (pin 2))
      (node (ref Q11) (pin 2))
      (node (ref Q7) (pin 2))
      (node (ref J15) (pin 2))
      (node (ref Q8) (pin 2))
      (node (ref Q6) (pin 2))
      (node (ref Q9) (pin 2))
      (node (ref Q12) (pin 2))
      (node (ref Q10) (pin 2))
      (node (ref Q2) (pin 2))
      (node (ref P3) (pin 4))
      (node (ref Q5) (pin 2))
      (node (ref Q4) (pin 2))
      (node (ref P1) (pin 6))
      (node (ref J1) (pin 4))
      (node (ref P1) (pin 7))
      (node (ref Q13) (pin 2))
      (node (ref U1) (pin 4)))
    (net (code 27) (name "/10(**/SS)")
      (node (ref Q11) (pin 1))
      (node (ref P3) (pin 8)))
    (net (code 28) (name "Net-(J2-Pad1)")
      (node (ref R2) (pin 2))
      (node (ref J2) (pin 1)))
    (net (code 29) (name "/1(Tx)")
      (node (ref J17) (pin 1))
      (node (ref P4) (pin 7)))
    (net (code 30) (name "/0(Rx)")
      (node (ref J16) (pin 1))
      (node (ref P4) (pin 8)))
    (net (code 31) (name "/3(**)")
      (node (ref P4) (pin 5))
      (node (ref Q4) (pin 1)))
    (net (code 32) (name "Net-(J2-Pad2)")
      (node (ref J2) (pin 2))
      (node (ref R1) (pin 2)))
    (net (code 33) (name /4)
      (node (ref Q5) (pin 1))
      (node (ref P4) (pin 4)))
    (net (code 34) (name "/9(**)")
      (node (ref P3) (pin 9))
      (node (ref Q10) (pin 1)))
    (net (code 35) (name /8)
      (node (ref P3) (pin 10))
      (node (ref Q9) (pin 1)))
    (net (code 36) (name /7)
      (node (ref Q8) (pin 1))
      (node (ref P4) (pin 1)))
    (net (code 37) (name "/6(**)")
      (node (ref P4) (pin 2))
      (node (ref Q7) (pin 1)))
    (net (code 38) (name "/5(**)")
      (node (ref Q6) (pin 1))
      (node (ref P4) (pin 3)))
    (net (code 39) (name "Net-(P6-Pad1)")
      (node (ref P6) (pin 1)))
    (net (code 40) (name "Net-(P5-Pad1)")
      (node (ref P5) (pin 1)))
    (net (code 41) (name "Net-(P7-Pad1)")
      (node (ref P7) (pin 1)))
    (net (code 42) (name "Net-(P8-Pad1)")
      (node (ref P8) (pin 1)))
    (net (code 43) (name "Net-(P1-Pad1)")
      (node (ref P1) (pin 1)))
    (net (code 44) (name "Net-(U1-Pad3)")
      (node (ref U1) (pin 3)))
    (net (code 45) (name "Net-(Q11-Pad3)")
      (node (ref Q11) (pin 3))
      (node (ref U11) (pin 2)))
    (net (code 46) (name "Net-(U11-Pad3)")
      (node (ref U11) (pin 3)))
    (net (code 47) (name "Net-(U11-Pad5)")
      (node (ref U11) (pin 5)))
    (net (code 48) (name "Net-(D15-Pad1)")
      (node (ref D15) (pin 1))
      (node (ref J12) (pin 2)))
    (net (code 49) (name "Net-(R26-Pad2)")
      (node (ref U11) (pin 4))
      (node (ref R26) (pin 2)))
    (net (code 50) (name "Net-(D15-Pad3)")
      (node (ref D15) (pin 3))
      (node (ref R26) (pin 1)))
    (net (code 51) (name "Net-(R23-Pad2)")
      (node (ref U11) (pin 1))
      (node (ref R23) (pin 2)))
    (net (code 52) (name "Net-(D14-Pad1)")
      (node (ref J11) (pin 2))
      (node (ref D14) (pin 1)))
    (net (code 53) (name "Net-(D14-Pad3)")
      (node (ref D14) (pin 3))
      (node (ref R25) (pin 1)))
    (net (code 54) (name "Net-(D16-Pad2)")
      (node (ref J13) (pin 1))
      (node (ref D16) (pin 2))
      (node (ref U12) (pin 6)))
    (net (code 55) (name "Net-(U12-Pad5)")
      (node (ref U12) (pin 5)))
    (net (code 56) (name "Net-(U12-Pad3)")
      (node (ref U12) (pin 3)))
    (net (code 57) (name "Net-(Q12-Pad3)")
      (node (ref U12) (pin 2))
      (node (ref Q12) (pin 3)))
    (net (code 58) (name "Net-(R27-Pad2)")
      (node (ref R27) (pin 2))
      (node (ref U12) (pin 4)))
    (net (code 59) (name "Net-(R24-Pad2)")
      (node (ref R24) (pin 2))
      (node (ref U12) (pin 1)))
    (net (code 60) (name "Net-(D13-Pad3)")
      (node (ref D13) (pin 3))
      (node (ref R21) (pin 1)))
    (net (code 61) (name "Net-(R21-Pad2)")
      (node (ref R21) (pin 2))
      (node (ref U9) (pin 4)))
    (net (code 62) (name "Net-(Q9-Pad3)")
      (node (ref Q9) (pin 3))
      (node (ref U9) (pin 2)))
    (net (code 63) (name "Net-(R17-Pad2)")
      (node (ref R17) (pin 2))
      (node (ref U9) (pin 1)))
    (net (code 64) (name "Net-(D13-Pad1)")
      (node (ref J10) (pin 2))
      (node (ref D13) (pin 1)))
    (net (code 65) (name "Net-(U9-Pad5)")
      (node (ref U9) (pin 5)))
    (net (code 66) (name "Net-(U9-Pad3)")
      (node (ref U9) (pin 3)))
    (net (code 67) (name "Net-(R22-Pad2)")
      (node (ref R22) (pin 2))
      (node (ref U10) (pin 1)))
    (net (code 68) (name "Net-(Q10-Pad3)")
      (node (ref U10) (pin 2))
      (node (ref Q10) (pin 3)))
    (net (code 69) (name "Net-(U10-Pad5)")
      (node (ref U10) (pin 5)))
    (net (code 70) (name "Net-(R25-Pad2)")
      (node (ref U10) (pin 4))
      (node (ref R25) (pin 2)))
    (net (code 71) (name "Net-(U10-Pad3)")
      (node (ref U10) (pin 3)))
    (net (code 72) (name "Net-(D13-Pad2)")
      (node (ref J10) (pin 1))
      (node (ref D13) (pin 2))
      (node (ref U9) (pin 6)))
    (net (code 73) (name "Net-(D7-Pad3)")
      (node (ref D7) (pin 3))
      (node (ref R11) (pin 1)))
    (net (code 74) (name "Net-(D6-Pad3)")
      (node (ref R7) (pin 1))
      (node (ref D6) (pin 3)))
    (net (code 75) (name "Net-(D6-Pad2)")
      (node (ref D6) (pin 2))
      (node (ref U2) (pin 6))
      (node (ref J3) (pin 1)))
    (net (code 76) (name "Net-(D6-Pad1)")
      (node (ref D6) (pin 1))
      (node (ref J3) (pin 2)))
    (net (code 77) (name "Net-(R28-Pad2)")
      (node (ref U13) (pin 1))
      (node (ref R28) (pin 2)))
    (net (code 78) (name "Net-(J17-Pad2)")
      (node (ref J17) (pin 2))
      (node (ref Q3) (pin 1)))
    (net (code 79) (name "Net-(J16-Pad2)")
      (node (ref Q2) (pin 1))
      (node (ref J16) (pin 2)))
    (net (code 80) (name "Net-(D16-Pad3)")
      (node (ref D16) (pin 3))
      (node (ref R27) (pin 1)))
    (net (code 81) (name "Net-(D15-Pad2)")
      (node (ref D15) (pin 2))
      (node (ref U11) (pin 6))
      (node (ref J12) (pin 1)))
    (net (code 82) (name "Net-(D14-Pad2)")
      (node (ref D14) (pin 2))
      (node (ref U10) (pin 6))
      (node (ref J11) (pin 1)))
    (net (code 83) (name "Net-(D11-Pad3)")
      (node (ref D11) (pin 3))
      (node (ref R19) (pin 1)))
    (net (code 84) (name "Net-(D12-Pad2)")
      (node (ref U8) (pin 6))
      (node (ref J9) (pin 1))
      (node (ref D12) (pin 2)))
    (net (code 85) (name "Net-(D16-Pad1)")
      (node (ref J13) (pin 2))
      (node (ref D16) (pin 1)))
    (net (code 86) (name "Net-(Q13-Pad3)")
      (node (ref Q13) (pin 3))
      (node (ref U13) (pin 2)))
    (net (code 87) (name "Net-(R29-Pad2)")
      (node (ref R29) (pin 2))
      (node (ref U13) (pin 4)))
    (net (code 88) (name "Net-(D17-Pad3)")
      (node (ref R29) (pin 1))
      (node (ref D17) (pin 3)))
    (net (code 89) (name "Net-(U13-Pad3)")
      (node (ref U13) (pin 3)))
    (net (code 90) (name "Net-(D17-Pad2)")
      (node (ref J14) (pin 1))
      (node (ref U13) (pin 6))
      (node (ref D17) (pin 2)))
    (net (code 91) (name "Net-(D17-Pad1)")
      (node (ref D17) (pin 1))
      (node (ref J14) (pin 2)))
    (net (code 92) (name "Net-(U13-Pad5)")
      (node (ref U13) (pin 5)))
    (net (code 93) (name "Net-(D8-Pad1)")
      (node (ref D8) (pin 1))
      (node (ref J5) (pin 2)))
    (net (code 94) (name "Net-(D8-Pad2)")
      (node (ref J5) (pin 1))
      (node (ref U4) (pin 6))
      (node (ref D8) (pin 2)))
    (net (code 95) (name "Net-(U4-Pad5)")
      (node (ref U4) (pin 5)))
    (net (code 96) (name "Net-(U4-Pad3)")
      (node (ref U4) (pin 3)))
    (net (code 97) (name "Net-(R9-Pad2)")
      (node (ref U4) (pin 1))
      (node (ref R9) (pin 2)))
    (net (code 98) (name "Net-(Q4-Pad3)")
      (node (ref Q4) (pin 3))
      (node (ref U4) (pin 2)))
    (net (code 99) (name "Net-(R12-Pad2)")
      (node (ref R12) (pin 2))
      (node (ref U4) (pin 4)))
    (net (code 100) (name "Net-(D8-Pad3)")
      (node (ref R12) (pin 1))
      (node (ref D8) (pin 3)))
    (net (code 101) (name "Net-(D7-Pad1)")
      (node (ref D7) (pin 1))
      (node (ref J4) (pin 2)))
    (net (code 102) (name "Net-(D7-Pad2)")
      (node (ref U3) (pin 6))
      (node (ref J4) (pin 1))
      (node (ref D7) (pin 2)))
    (net (code 103) (name "Net-(D9-Pad1)")
      (node (ref D9) (pin 1))
      (node (ref J6) (pin 2)))
    (net (code 104) (name "Net-(D9-Pad2)")
      (node (ref J6) (pin 1))
      (node (ref D9) (pin 2))
      (node (ref U5) (pin 6)))
    (net (code 105) (name "Net-(U5-Pad5)")
      (node (ref U5) (pin 5)))
    (net (code 106) (name "Net-(U5-Pad3)")
      (node (ref U5) (pin 3)))
    (net (code 107) (name "Net-(R10-Pad2)")
      (node (ref U5) (pin 1))
      (node (ref R10) (pin 2)))
    (net (code 108) (name "Net-(Q5-Pad3)")
      (node (ref Q5) (pin 3))
      (node (ref U5) (pin 2)))
    (net (code 109) (name "Net-(R13-Pad2)")
      (node (ref R13) (pin 2))
      (node (ref U5) (pin 4)))
    (net (code 110) (name "Net-(D9-Pad3)")
      (node (ref D9) (pin 3))
      (node (ref R13) (pin 1)))
    (net (code 111) (name "Net-(R11-Pad2)")
      (node (ref U3) (pin 4))
      (node (ref R11) (pin 2)))
    (net (code 112) (name "Net-(R7-Pad2)")
      (node (ref U2) (pin 4))
      (node (ref R7) (pin 2)))
    (net (code 113) (name "Net-(Q2-Pad3)")
      (node (ref U2) (pin 2))
      (node (ref Q2) (pin 3)))
    (net (code 114) (name "Net-(R6-Pad2)")
      (node (ref U2) (pin 1))
      (node (ref R6) (pin 2)))
    (net (code 115) (name "Net-(U2-Pad5)")
      (node (ref U2) (pin 5)))
    (net (code 116) (name "Net-(U2-Pad3)")
      (node (ref U2) (pin 3)))
    (net (code 117) (name "Net-(Q3-Pad3)")
      (node (ref Q3) (pin 3))
      (node (ref U3) (pin 2)))
    (net (code 118) (name "Net-(R8-Pad2)")
      (node (ref R8) (pin 2))
      (node (ref U3) (pin 1)))
    (net (code 119) (name "Net-(U3-Pad5)")
      (node (ref U3) (pin 5)))
    (net (code 120) (name "Net-(U3-Pad3)")
      (node (ref U3) (pin 3)))
    (net (code 121) (name "Net-(R19-Pad2)")
      (node (ref U7) (pin 4))
      (node (ref R19) (pin 2)))
    (net (code 122) (name "Net-(D12-Pad3)")
      (node (ref R20) (pin 1))
      (node (ref D12) (pin 3)))
    (net (code 123) (name "Net-(R16-Pad2)")
      (node (ref R16) (pin 2))
      (node (ref U8) (pin 1)))
    (net (code 124) (name "Net-(D11-Pad1)")
      (node (ref J8) (pin 2))
      (node (ref D11) (pin 1)))
    (net (code 125) (name "Net-(D11-Pad2)")
      (node (ref U7) (pin 6))
      (node (ref J8) (pin 1))
      (node (ref D11) (pin 2)))
    (net (code 126) (name "Net-(R20-Pad2)")
      (node (ref R20) (pin 2))
      (node (ref U8) (pin 4)))
    (net (code 127) (name "Net-(Q7-Pad3)")
      (node (ref Q7) (pin 3))
      (node (ref U7) (pin 2)))
    (net (code 128) (name "Net-(R15-Pad2)")
      (node (ref R15) (pin 2))
      (node (ref U7) (pin 1)))
    (net (code 129) (name "Net-(U7-Pad5)")
      (node (ref U7) (pin 5)))
    (net (code 130) (name "Net-(U7-Pad3)")
      (node (ref U7) (pin 3)))
    (net (code 131) (name "Net-(D12-Pad1)")
      (node (ref D12) (pin 1))
      (node (ref J9) (pin 2)))
    (net (code 132) (name "Net-(Q8-Pad3)")
      (node (ref Q8) (pin 3))
      (node (ref U8) (pin 2)))
    (net (code 133) (name "Net-(U8-Pad5)")
      (node (ref U8) (pin 5)))
    (net (code 134) (name "Net-(U8-Pad3)")
      (node (ref U8) (pin 3)))
    (net (code 135) (name "Net-(U6-Pad5)")
      (node (ref U6) (pin 5)))
    (net (code 136) (name "Net-(U6-Pad3)")
      (node (ref U6) (pin 3)))
    (net (code 137) (name "Net-(Q6-Pad3)")
      (node (ref U6) (pin 2))
      (node (ref Q6) (pin 3)))
    (net (code 138) (name "Net-(R18-Pad2)")
      (node (ref U6) (pin 4))
      (node (ref R18) (pin 2)))
    (net (code 139) (name "Net-(D10-Pad3)")
      (node (ref D10) (pin 3))
      (node (ref R18) (pin 1)))
    (net (code 140) (name "Net-(R14-Pad2)")
      (node (ref U6) (pin 1))
      (node (ref R14) (pin 2)))
    (net (code 141) (name "Net-(D10-Pad2)")
      (node (ref U6) (pin 6))
      (node (ref J7) (pin 1))
      (node (ref D10) (pin 2)))
    (net (code 142) (name "Net-(D10-Pad1)")
      (node (ref D10) (pin 1))
      (node (ref J7) (pin 2)))))