EESchema Schematic File Version 2
LIBS:power
LIBS:device
LIBS:transistors
LIBS:conn
LIBS:linear
LIBS:regul
LIBS:74xx
LIBS:cmos4000
LIBS:adc-dac
LIBS:memory
LIBS:xilinx
LIBS:microcontrollers
LIBS:dsp
LIBS:microchip
LIBS:analog_switches
LIBS:motorola
LIBS:texas
LIBS:intel
LIBS:audio
LIBS:interface
LIBS:digital-audio
LIBS:philips
LIBS:display
LIBS:cypress
LIBS:siliconi
LIBS:opto
LIBS:atmel
LIBS:contrib
LIBS:valves
LIBS:myParts
LIBS:electrics-cache
EELAYER 25 0
EELAYER END
$Descr A4 11693 8268
encoding utf-8
Sheet 1 2
Title ""
Date "lun. 30 mars 2015"
Rev ""
Comp ""
Comment1 ""
Comment2 ""
Comment3 ""
Comment4 ""
$EndDescr
Text Label 8950 1450 1    60   ~ 0
Vin
Text Label 9350 1450 1    60   ~ 0
IOREF
Text Label 8900 2500 0    60   ~ 0
A0
Text Label 8900 2600 0    60   ~ 0
A1
Text Label 8900 2700 0    60   ~ 0
A2
Text Label 8900 2800 0    60   ~ 0
A3
Text Label 8900 2900 0    60   ~ 0
A4(SDA)
Text Label 8900 3000 0    60   ~ 0
A5(SCL)
Text Label 10550 3000 0    60   ~ 0
0(Rx)
Text Label 10550 2800 0    60   ~ 0
2
Text Label 10550 2900 0    60   ~ 0
1(Tx)
Text Label 10550 2700 0    60   ~ 0
3(**)
Text Label 10550 2600 0    60   ~ 0
4
Text Label 10550 2500 0    60   ~ 0
5(**)
Text Label 10550 2400 0    60   ~ 0
6(**)
Text Label 10550 2300 0    60   ~ 0
7
Text Label 10550 2100 0    60   ~ 0
8
Text Label 10550 2000 0    60   ~ 0
9(**)
Text Label 10550 1900 0    60   ~ 0
10(**/SS)
Text Label 10550 1800 0    60   ~ 0
11(**/MOSI)
Text Label 10550 1700 0    60   ~ 0
12(MISO)
Text Label 10550 1600 0    60   ~ 0
13(SCK)
Text Label 10550 1400 0    60   ~ 0
AREF
NoConn ~ 9400 1600
Text Label 10550 1300 0    60   ~ 0
A4(SDA)
Text Label 10550 1200 0    60   ~ 0
A5(SCL)
Text Notes 10850 1000 0    60   ~ 0
Holes
Text Notes 8550 750  0    60   ~ 0
Shield for Arduino that uses\nthe same pin disposition\nlike "Uno" board Rev 3.
$Comp
L CONN_01X08 P1
U 1 1 56D70129
P 9600 1950
F 0 "P1" H 9600 2400 50  0000 C CNN
F 1 "Power" V 9700 1950 50  0000 C CNN
F 2 "Socket_Arduino_Uno:Socket_Strip_Arduino_1x08" V 9750 1950 20  0000 C CNN
F 3 "" H 9600 1950 50  0000 C CNN
	1    9600 1950
	1    0    0    -1  
$EndComp
Text Label 8650 1800 0    60   ~ 0
Reset
$Comp
L +3.3V #PWR01
U 1 1 56D70538
P 9150 1450
F 0 "#PWR01" H 9150 1300 50  0001 C CNN
F 1 "+3.3V" H 9150 1590 50  0000 C CNN
F 2 "" H 9150 1450 50  0000 C CNN
F 3 "" H 9150 1450 50  0000 C CNN
	1    9150 1450
	1    0    0    -1  
$EndComp
$Comp
L +5V #PWR02
U 1 1 56D707BB
P 9050 1350
F 0 "#PWR02" H 9050 1200 50  0001 C CNN
F 1 "+5V" H 9050 1490 50  0000 C CNN
F 2 "" H 9050 1350 50  0000 C CNN
F 3 "" H 9050 1350 50  0000 C CNN
	1    9050 1350
	1    0    0    -1  
$EndComp
$Comp
L GND #PWR03
U 1 1 56D70CC2
P 9300 3150
F 0 "#PWR03" H 9300 2900 50  0001 C CNN
F 1 "GND" H 9300 3000 50  0000 C CNN
F 2 "" H 9300 3150 50  0000 C CNN
F 3 "" H 9300 3150 50  0000 C CNN
	1    9300 3150
	1    0    0    -1  
$EndComp
$Comp
L GND #PWR04
U 1 1 56D70CFF
P 10300 3150
F 0 "#PWR04" H 10300 2900 50  0001 C CNN
F 1 "GND" H 10300 3000 50  0000 C CNN
F 2 "" H 10300 3150 50  0000 C CNN
F 3 "" H 10300 3150 50  0000 C CNN
	1    10300 3150
	1    0    0    -1  
$EndComp
$Comp
L CONN_01X06 P2
U 1 1 56D70DD8
P 9600 2750
F 0 "P2" H 9600 3100 50  0000 C CNN
F 1 "Analog" V 9700 2750 50  0000 C CNN
F 2 "Socket_Arduino_Uno:Socket_Strip_Arduino_1x06" V 9750 2800 20  0000 C CNN
F 3 "" H 9600 2750 50  0000 C CNN
	1    9600 2750
	1    0    0    -1  
$EndComp
$Comp
L CONN_01X01 P5
U 1 1 56D71177
P 10800 650
F 0 "P5" V 10900 650 50  0000 C CNN
F 1 "CONN_01X01" V 10900 650 50  0001 C CNN
F 2 "Socket_Arduino_Uno:Arduino_1pin" H 10721 724 20  0000 C CNN
F 3 "" H 10800 650 50  0000 C CNN
	1    10800 650 
	0    -1   -1   0   
$EndComp
$Comp
L CONN_01X01 P6
U 1 1 56D71274
P 10900 650
F 0 "P6" V 11000 650 50  0000 C CNN
F 1 "CONN_01X01" V 11000 650 50  0001 C CNN
F 2 "Socket_Arduino_Uno:Arduino_1pin" H 10900 650 20  0001 C CNN
F 3 "" H 10900 650 50  0000 C CNN
	1    10900 650 
	0    -1   -1   0   
$EndComp
$Comp
L CONN_01X01 P7
U 1 1 56D712A8
P 11000 650
F 0 "P7" V 11100 650 50  0000 C CNN
F 1 "CONN_01X01" V 11100 650 50  0001 C CNN
F 2 "Socket_Arduino_Uno:Arduino_1pin" V 11000 650 20  0001 C CNN
F 3 "" H 11000 650 50  0000 C CNN
	1    11000 650 
	0    -1   -1   0   
$EndComp
$Comp
L CONN_01X01 P8
U 1 1 56D712DB
P 11100 650
F 0 "P8" V 11200 650 50  0000 C CNN
F 1 "CONN_01X01" V 11200 650 50  0001 C CNN
F 2 "Socket_Arduino_Uno:Arduino_1pin" H 11024 572 20  0000 C CNN
F 3 "" H 11100 650 50  0000 C CNN
	1    11100 650 
	0    -1   -1   0   
$EndComp
NoConn ~ 10800 850 
NoConn ~ 10900 850 
NoConn ~ 11000 850 
NoConn ~ 11100 850 
$Comp
L CONN_01X08 P4
U 1 1 56D7164F
P 10000 2650
F 0 "P4" H 10000 3100 50  0000 C CNN
F 1 "Digital" V 10100 2650 50  0000 C CNN
F 2 "Socket_Arduino_Uno:Socket_Strip_Arduino_1x08" V 10150 2600 20  0000 C CNN
F 3 "" H 10000 2650 50  0000 C CNN
	1    10000 2650
	-1   0    0    -1  
$EndComp
$Comp
L CONN_01X10 P3
U 1 1 56D721E0
P 10000 1650
F 0 "P3" H 10000 2200 50  0000 C CNN
F 1 "Digital" V 10100 1650 50  0000 C CNN
F 2 "Socket_Arduino_Uno:Socket_Strip_Arduino_1x10" V 10150 1650 20  0000 C CNN
F 3 "" H 10000 1650 50  0000 C CNN
	1    10000 1650
	-1   0    0    -1  
$EndComp
Text Notes 9700 1600 0    60   ~ 0
1
$Comp
L R R1
U 1 1 5A44DBB3
P 1800 1200
F 0 "R1" V 1880 1200 50  0000 C CNN
F 1 "220k" V 1800 1200 50  0000 C CNN
F 2 "Resistors_SMD:R_1206_HandSoldering" V 1730 1200 50  0001 C CNN
F 3 "" H 1800 1200 50  0001 C CNN
	1    1800 1200
	0    1    1    0   
$EndComp
$Comp
L R R2
U 1 1 5A44DBDA
P 1800 1600
F 0 "R2" V 1880 1600 50  0000 C CNN
F 1 "220k" V 1800 1600 50  0000 C CNN
F 2 "Resistors_SMD:R_1206_HandSoldering" V 1730 1600 50  0001 C CNN
F 3 "" H 1800 1600 50  0001 C CNN
	1    1800 1600
	0    1    1    0   
$EndComp
$Comp
L R R4
U 1 1 5A44DC21
P 3700 1200
F 0 "R4" V 3780 1200 50  0000 C CNN
F 1 "1k" V 3700 1200 50  0000 C CNN
F 2 "Resistors_SMD:R_1206_HandSoldering" V 3630 1200 50  0001 C CNN
F 3 "" H 3700 1200 50  0001 C CNN
	1    3700 1200
	0    1    1    0   
$EndComp
$Comp
L R R3
U 1 1 5A44DC6E
P 2800 1900
F 0 "R3" V 2880 1900 50  0000 C CNN
F 1 "22k" V 2800 1900 50  0000 C CNN
F 2 "Resistors_SMD:R_1206_HandSoldering" V 2730 1900 50  0001 C CNN
F 3 "" H 2800 1900 50  0001 C CNN
	1    2800 1900
	-1   0    0    1   
$EndComp
$Comp
L R R5
U 1 1 5A44DCCF
P 4850 1100
F 0 "R5" V 4930 1100 50  0000 C CNN
F 1 "4k7" V 4850 1100 50  0000 C CNN
F 2 "Resistors_SMD:R_1206_HandSoldering" V 4780 1100 50  0001 C CNN
F 3 "" H 4850 1100 50  0001 C CNN
	1    4850 1100
	-1   0    0    1   
$EndComp
$Comp
L C C1
U 1 1 5A44DDD7
P 2150 1400
F 0 "C1" H 2175 1500 50  0000 L CNN
F 1 "1nF" H 2175 1300 50  0000 L CNN
F 2 "Capacitors_SMD:C_2220_HandSoldering" H 2188 1250 50  0001 C CNN
F 3 "" H 2150 1400 50  0001 C CNN
	1    2150 1400
	1    0    0    -1  
$EndComp
$Comp
L CP C2
U 1 1 5A44DE26
P 3200 1400
F 0 "C2" H 3225 1500 50  0000 L CNN
F 1 "10uF" H 3225 1300 50  0000 L CNN
F 2 "Capacitors_SMD:CP_Elec_4x5.3" H 3238 1250 50  0001 C CNN
F 3 "" H 3200 1400 50  0001 C CNN
	1    3200 1400
	1    0    0    -1  
$EndComp
$Comp
L D D1
U 1 1 5A44DE67
P 2500 1200
F 0 "D1" H 2500 1300 50  0000 C CNN
F 1 "1N4148" H 2500 1100 50  0000 C CNN
F 2 "Diodes_SMD:D_SOD-323_HandSoldering" H 2500 1200 50  0001 C CNN
F 3 "" H 2500 1200 50  0001 C CNN
	1    2500 1200
	-1   0    0    1   
$EndComp
$Comp
L D D2
U 1 1 5A44DEE8
P 2500 1600
F 0 "D2" H 2500 1700 50  0000 C CNN
F 1 "1N4148" H 2500 1500 50  0000 C CNN
F 2 "Diodes_SMD:D_SOD-323_HandSoldering" H 2500 1600 50  0001 C CNN
F 3 "" H 2500 1600 50  0001 C CNN
	1    2500 1600
	-1   0    0    1   
$EndComp
$Comp
L D D3
U 1 1 5A44DF43
P 2500 2150
F 0 "D3" H 2500 2250 50  0000 C CNN
F 1 "1N4148" H 2500 2050 50  0000 C CNN
F 2 "Diodes_SMD:D_SOD-323_HandSoldering" H 2500 2150 50  0001 C CNN
F 3 "" H 2500 2150 50  0001 C CNN
	1    2500 2150
	1    0    0    -1  
$EndComp
$Comp
L D D4
U 1 1 5A44DFC5
P 2500 2450
F 0 "D4" H 2500 2550 50  0000 C CNN
F 1 "1N4148" H 2500 2350 50  0000 C CNN
F 2 "Diodes_SMD:D_SOD-323_HandSoldering" H 2500 2450 50  0001 C CNN
F 3 "" H 2500 2450 50  0001 C CNN
	1    2500 2450
	1    0    0    -1  
$EndComp
$Comp
L D D5
U 1 1 5A44E101
P 3200 2250
F 0 "D5" H 3200 2350 50  0000 C CNN
F 1 "1N4148" H 3200 2150 50  0000 C CNN
F 2 "Diodes_SMD:D_SOD-323_HandSoldering" H 3200 2250 50  0001 C CNN
F 3 "" H 3200 2250 50  0001 C CNN
	1    3200 2250
	0    -1   -1   0   
$EndComp
$Comp
L 4N35S U1
U 1 1 5A44F5E8
P 4400 1400
F 0 "U1" H 4200 1600 50  0000 L CNN
F 1 "4N35S" H 4400 1600 50  0000 L CNN
F 2 "Housings_DIP:DIP-6_W7.62mm_SMDSocket_SmallPads" H 4200 1200 50  0001 L CIN
F 3 "" H 4400 1400 50  0001 L CNN
	1    4400 1400
	1    0    0    -1  
$EndComp
$Comp
L +5V #PWR05
U 1 1 5A4505AA
P 4850 850
F 0 "#PWR05" H 4850 700 50  0001 C CNN
F 1 "+5V" H 4850 990 50  0000 C CNN
F 2 "" H 4850 850 50  0001 C CNN
F 3 "" H 4850 850 50  0001 C CNN
	1    4850 850 
	1    0    0    -1  
$EndComp
$Comp
L GND #PWR06
U 1 1 5A4505EC
P 4850 1650
F 0 "#PWR06" H 4850 1400 50  0001 C CNN
F 1 "GND" H 4850 1500 50  0000 C CNN
F 2 "" H 4850 1650 50  0001 C CNN
F 3 "" H 4850 1650 50  0001 C CNN
	1    4850 1650
	1    0    0    -1  
$EndComp
Text Label 5200 1400 0    60   ~ 0
2
$Comp
L MMBT3904 Q1
U 1 1 5A463C1F
P 3700 1850
F 0 "Q1" H 3900 1925 50  0000 L CNN
F 1 "MMBT3904" H 3900 1850 50  0000 L CNN
F 2 "TO_SOT_Packages_SMD:SOT-23_Handsoldering" H 3900 1775 50  0001 L CIN
F 3 "" H 3700 1850 50  0001 L CNN
	1    3700 1850
	0    1    -1   0   
$EndComp
Text Notes 650  750  0    60   ~ 0
Zero Crossing Detector
$Comp
L Conn_01x04 J1
U 1 1 5A480015
P 6250 1150
F 0 "J1" H 6250 1350 50  0000 C CNN
F 1 "Conn_01x04" H 6250 850 50  0000 C CNN
F 2 "Socket_Strips:Socket_Strip_Straight_1x04_Pitch2.54mm" H 6250 1150 50  0001 C CNN
F 3 "" H 6250 1150 50  0001 C CNN
	1    6250 1150
	1    0    0    -1  
$EndComp
$Comp
L +5V #PWR07
U 1 1 5A4800AA
P 5900 950
F 0 "#PWR07" H 5900 800 50  0001 C CNN
F 1 "+5V" H 5900 1090 50  0000 C CNN
F 2 "" H 5900 950 50  0000 C CNN
F 3 "" H 5900 950 50  0000 C CNN
	1    5900 950 
	1    0    0    -1  
$EndComp
Text Label 6050 1150 2    60   ~ 0
A4(SDA)
Text Label 6050 1250 2    60   ~ 0
A5(SCL)
$Comp
L GND #PWR08
U 1 1 5A4804B8
P 5950 1450
F 0 "#PWR08" H 5950 1200 50  0001 C CNN
F 1 "GND" H 5950 1300 50  0000 C CNN
F 2 "" H 5950 1450 50  0000 C CNN
F 3 "" H 5950 1450 50  0000 C CNN
	1    5950 1450
	1    0    0    -1  
$EndComp
Text Notes 5500 750  0    60   ~ 0
RTC-Conn
$Sheet
S 4350 3750 900  1300
U 5A4800CD
F0 "Lamps" 60
F1 "Lamps.sch" 60
F2 "3(**)" I L 4350 4050 60 
F3 "4" I L 4350 4150 60 
F4 "5(**)" I L 4350 4250 60 
F5 "6(**)" I L 4350 4350 60 
F6 "7" I L 4350 4450 60 
F7 "8" I L 4350 4550 60 
F8 "9(**)" I L 4350 4650 60 
F9 "10(**/SS)" I L 4350 4750 60 
F10 "11(**/MOSI)" I L 4350 4850 60 
F11 "12(MISO)" I L 4350 4950 60 
F12 "0(Rx)" I L 4350 3850 60 
F13 "1(Tx)" I L 4350 3950 60 
$EndSheet
Wire Notes Line
	8525 825  9925 825 
Wire Notes Line
	9925 825  9925 475 
Wire Wire Line
	9350 1450 9350 1700
Wire Wire Line
	9350 1700 9400 1700
Wire Wire Line
	9400 2000 9050 2000
Wire Wire Line
	9400 2300 8950 2300
Wire Wire Line
	9400 2100 9300 2100
Wire Wire Line
	9400 2200 9300 2200
Connection ~ 9300 2200
Wire Wire Line
	8950 2300 8950 1450
Wire Wire Line
	9050 2000 9050 1350
Wire Wire Line
	9400 2500 8900 2500
Wire Wire Line
	9400 2600 8900 2600
Wire Wire Line
	9400 2700 8900 2700
Wire Wire Line
	9400 2800 8900 2800
Wire Wire Line
	9400 2900 8900 2900
Wire Wire Line
	9400 3000 8900 3000
Wire Wire Line
	10200 2100 10550 2100
Wire Wire Line
	10200 2000 10550 2000
Wire Wire Line
	10200 1900 10550 1900
Wire Wire Line
	10200 1800 10550 1800
Wire Wire Line
	10200 1700 10550 1700
Wire Wire Line
	10200 1600 10550 1600
Wire Wire Line
	10200 1400 10550 1400
Wire Wire Line
	10200 1300 10550 1300
Wire Wire Line
	10200 1200 10550 1200
Wire Wire Line
	10200 3000 10550 3000
Wire Wire Line
	10200 2900 10550 2900
Wire Wire Line
	10200 2800 10550 2800
Wire Wire Line
	10200 2700 10550 2700
Wire Wire Line
	10200 2600 10550 2600
Wire Wire Line
	10200 2500 10550 2500
Wire Wire Line
	10200 2400 10550 2400
Wire Wire Line
	10200 2300 10550 2300
Wire Wire Line
	10200 1500 10300 1500
Wire Wire Line
	10300 1500 10300 3150
Wire Wire Line
	9300 2100 9300 3150
Wire Notes Line
	8500 500  8500 3450
Wire Notes Line
	8500 3450 11200 3450
Wire Wire Line
	9400 1800 8650 1800
Wire Notes Line
	11200 1000 10700 1000
Wire Notes Line
	10700 1000 10700 500 
Wire Wire Line
	2150 1250 2150 1200
Wire Wire Line
	1950 1200 2350 1200
Connection ~ 2150 1200
Wire Wire Line
	1950 1600 2350 1600
Wire Wire Line
	2150 1550 2150 2150
Connection ~ 2150 1600
Wire Wire Line
	2650 1200 3550 1200
Wire Wire Line
	2800 1200 2800 1750
Wire Wire Line
	2650 1600 2800 1600
Connection ~ 2800 1600
Wire Wire Line
	2800 2050 2800 2450
Wire Wire Line
	2800 2150 2650 2150
Wire Wire Line
	2650 2450 3700 2450
Connection ~ 2800 2150
Wire Wire Line
	2350 2450 2000 2450
Wire Wire Line
	2000 2450 2000 1200
Connection ~ 2000 1200
Wire Wire Line
	2150 2150 2350 2150
Wire Wire Line
	3200 1200 3200 1250
Connection ~ 2800 1200
Wire Wire Line
	3200 1550 3200 2100
Wire Wire Line
	3200 2450 3200 2400
Connection ~ 2800 2450
Wire Wire Line
	3500 1750 3200 1750
Connection ~ 3200 1750
Wire Wire Line
	3700 2450 3700 2050
Connection ~ 3200 2450
Wire Wire Line
	3900 1750 4100 1750
Wire Wire Line
	4100 1750 4100 1500
Wire Wire Line
	4100 1300 4100 1200
Wire Wire Line
	4100 1200 3850 1200
Connection ~ 3200 1200
Wire Wire Line
	4850 1250 4850 1400
Connection ~ 4850 1400
Wire Wire Line
	4700 1400 5200 1400
Wire Wire Line
	4850 1500 4700 1500
Wire Notes Line
	600  600  600  2650
Wire Notes Line
	600  2650 5350 2650
Wire Notes Line
	5350 2650 5350 600 
Wire Notes Line
	5350 600  600  600 
Wire Wire Line
	5900 950  5900 1050
Wire Wire Line
	5900 1050 6050 1050
Wire Wire Line
	5950 1450 5950 1350
Wire Wire Line
	5950 1350 6050 1350
Wire Notes Line
	5450 600  5450 1700
Wire Notes Line
	5450 1700 6650 1700
Wire Notes Line
	6650 1700 6650 600 
Wire Notes Line
	6650 600  5450 600 
Text Label 4150 4050 2    60   ~ 0
3(**)
$Comp
L Screw_Terminal_01x02 J2
U 1 1 5A48A269
P 1150 1500
F 0 "J2" H 1150 1600 50  0000 C CNN
F 1 "Screw_Terminal_01x02" H 1250 1300 50  0000 C CNN
F 2 "myfootprints:PhoenixContact_MKDSN-G_02x5.08mm" H 1150 1500 50  0001 C CNN
F 3 "" H 1150 1500 50  0001 C CNN
	1    1150 1500
	-1   0    0    1   
$EndComp
Wire Wire Line
	1650 1600 1650 1500
Wire Wire Line
	1650 1500 1350 1500
Wire Wire Line
	1350 1400 1650 1400
Wire Wire Line
	1650 1400 1650 1200
Wire Wire Line
	4150 4050 4350 4050
Text Label 4150 3850 2    60   ~ 0
0(Rx)
Text Label 4150 3950 2    60   ~ 0
1(Tx)
Text Label 4150 4150 2    60   ~ 0
4
Text Label 4150 4250 2    60   ~ 0
5(**)
Text Label 4150 4350 2    60   ~ 0
6(**)
Text Label 4150 4450 2    60   ~ 0
7
Text Label 4150 4550 2    60   ~ 0
8
Text Label 4150 4650 2    60   ~ 0
9(**)
Text Label 4150 4750 2    60   ~ 0
10(**/SS)
Text Label 4150 4850 2    60   ~ 0
11(**/MOSI)
Text Label 4150 4950 2    60   ~ 0
12(MISO)
Wire Wire Line
	4150 3850 4350 3850
Wire Wire Line
	4150 3950 4350 3950
Wire Wire Line
	4150 4150 4350 4150
Wire Wire Line
	4150 4250 4350 4250
Wire Wire Line
	4150 4350 4350 4350
Wire Wire Line
	4150 4450 4350 4450
Wire Wire Line
	4150 4550 4350 4550
Wire Wire Line
	4150 4650 4350 4650
Wire Wire Line
	4150 4750 4350 4750
Wire Wire Line
	4150 4850 4350 4850
Wire Wire Line
	4150 4950 4350 4950
NoConn ~ 4700 1300
NoConn ~ 9400 1700
NoConn ~ 9400 1800
NoConn ~ 9400 2500
NoConn ~ 9400 2600
NoConn ~ 9400 2700
NoConn ~ 9400 2800
NoConn ~ 10200 1400
NoConn ~ 10200 1600
Wire Wire Line
	4850 850  4850 950 
Wire Wire Line
	4850 1650 4850 1500
NoConn ~ 9400 1900
NoConn ~ 9150 1450
$Comp
L Screw_Terminal_01x02 J15
U 1 1 5A4A6D02
P 7700 1100
F 0 "J15" H 7700 1200 50  0000 C CNN
F 1 "Screw_Terminal_01x02" H 7700 900 50  0000 C CNN
F 2 "myFootprints:PhoenixContact_MKDSN-G_02x5.08mm" H 7700 1100 50  0001 C CNN
F 3 "" H 7700 1100 50  0001 C CNN
	1    7700 1100
	1    0    0    -1  
$EndComp
$Comp
L GND #PWR09
U 1 1 5A4A6F9F
P 7100 1250
F 0 "#PWR09" H 7100 1000 50  0001 C CNN
F 1 "GND" H 7100 1100 50  0000 C CNN
F 2 "" H 7100 1250 50  0001 C CNN
F 3 "" H 7100 1250 50  0001 C CNN
	1    7100 1250
	1    0    0    -1  
$EndComp
Text Label 7100 1050 1    60   ~ 0
Vin
Wire Wire Line
	7500 1100 7100 1100
Wire Wire Line
	7100 1100 7100 1050
Wire Wire Line
	7500 1200 7100 1200
Wire Wire Line
	7100 1200 7100 1250
Wire Notes Line
	6750 600  8400 600 
Wire Notes Line
	6750 600  6750 1700
Wire Notes Line
	6750 1700 8400 1700
Wire Notes Line
	8400 1700 8400 600 
Text Notes 6850 750  0    60   ~ 0
5V Power-Supply\n
$Comp
L +5V #PWR010
U 1 1 5A4AA6EB
P 7600 2000
F 0 "#PWR010" H 7600 1850 50  0001 C CNN
F 1 "+5V" H 7600 2140 50  0000 C CNN
F 2 "" H 7600 2000 50  0001 C CNN
F 3 "" H 7600 2000 50  0001 C CNN
	1    7600 2000
	1    0    0    -1  
$EndComp
$Comp
L GND #PWR011
U 1 1 5A4AA779
P 8000 2100
F 0 "#PWR011" H 8000 1850 50  0001 C CNN
F 1 "GND" H 8000 1950 50  0000 C CNN
F 2 "" H 8000 2100 50  0001 C CNN
F 3 "" H 8000 2100 50  0001 C CNN
	1    8000 2100
	1    0    0    -1  
$EndComp
$Comp
L PWR_FLAG #FLG012
U 1 1 5A4AA807
P 8000 2000
F 0 "#FLG012" H 8000 2075 50  0001 C CNN
F 1 "PWR_FLAG" H 8000 2150 50  0000 C CNN
F 2 "" H 8000 2000 50  0001 C CNN
F 3 "" H 8000 2000 50  0001 C CNN
	1    8000 2000
	1    0    0    -1  
$EndComp
$Comp
L PWR_FLAG #FLG013
U 1 1 5A4AA8F7
P 7600 2100
F 0 "#FLG013" H 7600 2175 50  0001 C CNN
F 1 "PWR_FLAG" H 7600 2250 50  0000 C CNN
F 2 "" H 7600 2100 50  0001 C CNN
F 3 "" H 7600 2100 50  0001 C CNN
	1    7600 2100
	-1   0    0    1   
$EndComp
Wire Wire Line
	7600 2000 7600 2100
Wire Wire Line
	8000 2000 8000 2100
$EndSCHEMATC
