EESchema Schematic File Version 2
LIBS:power
LIBS:device
LIBS:transistors
LIBS:conn
LIBS:linear
LIBS:regul
LIBS:74xx
LIBS:cmos4000
LIBS:adc-dac
LIBS:memory
LIBS:xilinx
LIBS:microcontrollers
LIBS:dsp
LIBS:microchip
LIBS:analog_switches
LIBS:motorola
LIBS:texas
LIBS:intel
LIBS:audio
LIBS:interface
LIBS:digital-audio
LIBS:philips
LIBS:display
LIBS:cypress
LIBS:siliconi
LIBS:opto
LIBS:atmel
LIBS:contrib
LIBS:valves
LIBS:myParts
LIBS:electrics-cache
EELAYER 25 0
EELAYER END
$Descr A4 11693 8268
encoding utf-8
Sheet 2 2
Title ""
Date ""
Rev ""
Comp ""
Comment1 ""
Comment2 ""
Comment3 ""
Comment4 ""
$EndDescr
$Comp
L R R6
U 1 1 5A488E07
P 1300 950
F 0 "R6" V 1380 950 50  0000 C CNN
F 1 "330" V 1300 950 50  0000 C CNN
F 2 "Resistors_SMD:R_1206_HandSoldering" V 1230 950 50  0001 C CNN
F 3 "" H 1300 950 50  0001 C CNN
	1    1300 950 
	1    0    0    -1  
$EndComp
$Comp
L R R7
U 1 1 5A488E33
P 2150 1400
F 0 "R7" V 2230 1400 50  0000 C CNN
F 1 "330" V 2150 1400 50  0000 C CNN
F 2 "Resistors_SMD:R_1206_HandSoldering" V 2080 1400 50  0001 C CNN
F 3 "" H 2150 1400 50  0001 C CNN
	1    2150 1400
	0    1    1    0   
$EndComp
$Comp
L MMBT3904 Q2
U 1 1 5A488F68
P 1200 1700
F 0 "Q2" H 1400 1775 50  0000 L CNN
F 1 "MMBT3904" H 1400 1700 50  0000 L CNN
F 2 "TO_SOT_Packages_SMD:SOT-23_Handsoldering" H 1400 1625 50  0001 L CIN
F 3 "" H 1200 1700 50  0001 L CNN
	1    1200 1700
	1    0    0    -1  
$EndComp
$Comp
L MOC3052M U2
U 1 1 5A488FA1
P 1600 1300
F 0 "U2" H 1390 1490 50  0000 L CNN
F 1 "MOC3052M" H 1600 1500 50  0000 L CNN
F 2 "Housings_DIP:DIP-6_W7.62mm_SMDSocket_SmallPads" H 1400 1100 50  0001 L CIN
F 3 "" H 1575 1300 50  0001 L CNN
	1    1600 1300
	1    0    0    -1  
$EndComp
$Comp
L Screw_Terminal_01x02 J3
U 1 1 5A4891CC
P 3400 1300
F 0 "J3" H 3400 1400 50  0000 C CNN
F 1 "Screw_Terminal_01x02" H 3400 1100 50  0000 C CNN
F 2 "myfootprints:PhoenixContact_MKDSN-G_02x5.08mm" H 3400 1300 50  0001 C CNN
F 3 "" H 3400 1300 50  0001 C CNN
	1    3400 1300
	1    0    0    -1  
$EndComp
$Comp
L +5V #PWR014
U 1 1 5A489229
P 1300 700
F 0 "#PWR014" H 1300 550 50  0001 C CNN
F 1 "+5V" H 1300 840 50  0000 C CNN
F 2 "" H 1300 700 50  0001 C CNN
F 3 "" H 1300 700 50  0001 C CNN
	1    1300 700 
	1    0    0    -1  
$EndComp
$Comp
L GND #PWR015
U 1 1 5A489249
P 1300 2000
F 0 "#PWR015" H 1300 1750 50  0001 C CNN
F 1 "GND" H 1300 1850 50  0000 C CNN
F 2 "" H 1300 2000 50  0001 C CNN
F 3 "" H 1300 2000 50  0001 C CNN
	1    1300 2000
	1    0    0    -1  
$EndComp
Wire Wire Line
	1300 700  1300 800 
Wire Wire Line
	1300 1100 1300 1200
Wire Wire Line
	1300 1400 1300 1500
Wire Wire Line
	1300 1900 1300 2000
Wire Wire Line
	1900 1400 2000 1400
Wire Wire Line
	2300 1400 2400 1400
Wire Wire Line
	2100 1150 2950 1150
Wire Wire Line
	2100 1150 2100 1200
Wire Wire Line
	2100 1200 1900 1200
Wire Wire Line
	2550 1450 2950 1450
Wire Wire Line
	2950 1450 2950 1400
Wire Wire Line
	2950 1400 3200 1400
Wire Wire Line
	3200 1300 2950 1300
Wire Wire Line
	2950 1300 2950 1150
Connection ~ 2550 1150
Text HLabel 900  5100 0    60   Input ~ 0
3(**)
$Comp
L R R8
U 1 1 5A48A83B
P 1300 2650
F 0 "R8" V 1380 2650 50  0000 C CNN
F 1 "330" V 1300 2650 50  0000 C CNN
F 2 "Resistors_SMD:R_1206_HandSoldering" V 1230 2650 50  0001 C CNN
F 3 "" H 1300 2650 50  0001 C CNN
	1    1300 2650
	1    0    0    -1  
$EndComp
$Comp
L R R11
U 1 1 5A48A841
P 2150 3100
F 0 "R11" V 2230 3100 50  0000 C CNN
F 1 "330" V 2150 3100 50  0000 C CNN
F 2 "Resistors_SMD:R_1206_HandSoldering" V 2080 3100 50  0001 C CNN
F 3 "" H 2150 3100 50  0001 C CNN
	1    2150 3100
	0    1    1    0   
$EndComp
$Comp
L MMBT3904 Q3
U 1 1 5A48A847
P 1200 3400
F 0 "Q3" H 1400 3475 50  0000 L CNN
F 1 "MMBT3904" H 1400 3400 50  0000 L CNN
F 2 "TO_SOT_Packages_SMD:SOT-23_Handsoldering" H 1400 3325 50  0001 L CIN
F 3 "" H 1200 3400 50  0001 L CNN
	1    1200 3400
	1    0    0    -1  
$EndComp
$Comp
L MOC3052M U3
U 1 1 5A48A84D
P 1600 3000
F 0 "U3" H 1390 3190 50  0000 L CNN
F 1 "MOC3052M" H 1600 3200 50  0000 L CNN
F 2 "Housings_DIP:DIP-6_W7.62mm_SMDSocket_SmallPads" H 1400 2800 50  0001 L CIN
F 3 "" H 1575 3000 50  0001 L CNN
	1    1600 3000
	1    0    0    -1  
$EndComp
$Comp
L Screw_Terminal_01x02 J4
U 1 1 5A48A859
P 3400 3000
F 0 "J4" H 3400 3100 50  0000 C CNN
F 1 "Screw_Terminal_01x02" H 3400 2800 50  0000 C CNN
F 2 "myfootprints:PhoenixContact_MKDSN-G_02x5.08mm" H 3400 3000 50  0001 C CNN
F 3 "" H 3400 3000 50  0001 C CNN
	1    3400 3000
	1    0    0    -1  
$EndComp
$Comp
L +5V #PWR016
U 1 1 5A48A85F
P 1300 2400
F 0 "#PWR016" H 1300 2250 50  0001 C CNN
F 1 "+5V" H 1300 2540 50  0000 C CNN
F 2 "" H 1300 2400 50  0001 C CNN
F 3 "" H 1300 2400 50  0001 C CNN
	1    1300 2400
	1    0    0    -1  
$EndComp
$Comp
L GND #PWR017
U 1 1 5A48A865
P 1300 3700
F 0 "#PWR017" H 1300 3450 50  0001 C CNN
F 1 "GND" H 1300 3550 50  0000 C CNN
F 2 "" H 1300 3700 50  0001 C CNN
F 3 "" H 1300 3700 50  0001 C CNN
	1    1300 3700
	1    0    0    -1  
$EndComp
Wire Wire Line
	1300 2400 1300 2500
Wire Wire Line
	1300 2800 1300 2900
Wire Wire Line
	1300 3100 1300 3200
Wire Wire Line
	1300 3600 1300 3700
Wire Wire Line
	1900 3100 2000 3100
Wire Wire Line
	2300 3100 2400 3100
Wire Wire Line
	2100 2850 2950 2850
Wire Wire Line
	2100 2850 2100 2900
Wire Wire Line
	2100 2900 1900 2900
Wire Wire Line
	2550 3150 2950 3150
Wire Wire Line
	2950 3150 2950 3100
Wire Wire Line
	2950 3100 3200 3100
Wire Wire Line
	3200 3000 2950 3000
Wire Wire Line
	2950 3000 2950 2850
Connection ~ 2550 2850
$Comp
L R R9
U 1 1 5A48ABBF
P 1300 4350
F 0 "R9" V 1380 4350 50  0000 C CNN
F 1 "330" V 1300 4350 50  0000 C CNN
F 2 "Resistors_SMD:R_1206_HandSoldering" V 1230 4350 50  0001 C CNN
F 3 "" H 1300 4350 50  0001 C CNN
	1    1300 4350
	1    0    0    -1  
$EndComp
$Comp
L R R12
U 1 1 5A48ABC5
P 2150 4800
F 0 "R12" V 2230 4800 50  0000 C CNN
F 1 "330" V 2150 4800 50  0000 C CNN
F 2 "Resistors_SMD:R_1206_HandSoldering" V 2080 4800 50  0001 C CNN
F 3 "" H 2150 4800 50  0001 C CNN
	1    2150 4800
	0    1    1    0   
$EndComp
$Comp
L MMBT3904 Q4
U 1 1 5A48ABCB
P 1200 5100
F 0 "Q4" H 1400 5175 50  0000 L CNN
F 1 "MMBT3904" H 1400 5100 50  0000 L CNN
F 2 "TO_SOT_Packages_SMD:SOT-23_Handsoldering" H 1400 5025 50  0001 L CIN
F 3 "" H 1200 5100 50  0001 L CNN
	1    1200 5100
	1    0    0    -1  
$EndComp
$Comp
L MOC3052M U4
U 1 1 5A48ABD1
P 1600 4700
F 0 "U4" H 1390 4890 50  0000 L CNN
F 1 "MOC3052M" H 1600 4900 50  0000 L CNN
F 2 "Housings_DIP:DIP-6_W7.62mm_SMDSocket_SmallPads" H 1400 4500 50  0001 L CIN
F 3 "" H 1575 4700 50  0001 L CNN
	1    1600 4700
	1    0    0    -1  
$EndComp
$Comp
L Screw_Terminal_01x02 J5
U 1 1 5A48ABDD
P 3400 4700
F 0 "J5" H 3400 4800 50  0000 C CNN
F 1 "Screw_Terminal_01x02" H 3400 4500 50  0000 C CNN
F 2 "myfootprints:PhoenixContact_MKDSN-G_02x5.08mm" H 3400 4700 50  0001 C CNN
F 3 "" H 3400 4700 50  0001 C CNN
	1    3400 4700
	1    0    0    -1  
$EndComp
$Comp
L +5V #PWR018
U 1 1 5A48ABE3
P 1300 4100
F 0 "#PWR018" H 1300 3950 50  0001 C CNN
F 1 "+5V" H 1300 4240 50  0000 C CNN
F 2 "" H 1300 4100 50  0001 C CNN
F 3 "" H 1300 4100 50  0001 C CNN
	1    1300 4100
	1    0    0    -1  
$EndComp
$Comp
L GND #PWR019
U 1 1 5A48ABE9
P 1300 5400
F 0 "#PWR019" H 1300 5150 50  0001 C CNN
F 1 "GND" H 1300 5250 50  0000 C CNN
F 2 "" H 1300 5400 50  0001 C CNN
F 3 "" H 1300 5400 50  0001 C CNN
	1    1300 5400
	1    0    0    -1  
$EndComp
Wire Wire Line
	1300 4500 1300 4600
Wire Wire Line
	1300 4800 1300 4900
Wire Wire Line
	1900 4800 2000 4800
Wire Wire Line
	2300 4800 2400 4800
Wire Wire Line
	2100 4550 2950 4550
Wire Wire Line
	2100 4550 2100 4600
Wire Wire Line
	2100 4600 1900 4600
Wire Wire Line
	2550 4850 2950 4850
Wire Wire Line
	2950 4850 2950 4800
Wire Wire Line
	2950 4800 3200 4800
Wire Wire Line
	3200 4700 2950 4700
Wire Wire Line
	2950 4700 2950 4550
Connection ~ 2550 4550
Wire Wire Line
	1000 5100 900  5100
$Comp
L R R10
U 1 1 5A48ACDD
P 1300 6100
F 0 "R10" V 1380 6100 50  0000 C CNN
F 1 "330" V 1300 6100 50  0000 C CNN
F 2 "Resistors_SMD:R_1206_HandSoldering" V 1230 6100 50  0001 C CNN
F 3 "" H 1300 6100 50  0001 C CNN
	1    1300 6100
	1    0    0    -1  
$EndComp
$Comp
L R R13
U 1 1 5A48ACE3
P 2150 6550
F 0 "R13" V 2230 6550 50  0000 C CNN
F 1 "330" V 2150 6550 50  0000 C CNN
F 2 "Resistors_SMD:R_1206_HandSoldering" V 2080 6550 50  0001 C CNN
F 3 "" H 2150 6550 50  0001 C CNN
	1    2150 6550
	0    1    1    0   
$EndComp
$Comp
L MMBT3904 Q5
U 1 1 5A48ACE9
P 1200 6850
F 0 "Q5" H 1400 6925 50  0000 L CNN
F 1 "MMBT3904" H 1400 6850 50  0000 L CNN
F 2 "TO_SOT_Packages_SMD:SOT-23_Handsoldering" H 1400 6775 50  0001 L CIN
F 3 "" H 1200 6850 50  0001 L CNN
	1    1200 6850
	1    0    0    -1  
$EndComp
$Comp
L MOC3052M U5
U 1 1 5A48ACEF
P 1600 6450
F 0 "U5" H 1390 6640 50  0000 L CNN
F 1 "MOC3052M" H 1600 6650 50  0000 L CNN
F 2 "Housings_DIP:DIP-6_W7.62mm_SMDSocket_SmallPads" H 1400 6250 50  0001 L CIN
F 3 "" H 1575 6450 50  0001 L CNN
	1    1600 6450
	1    0    0    -1  
$EndComp
$Comp
L Screw_Terminal_01x02 J6
U 1 1 5A48ACFB
P 3400 6450
F 0 "J6" H 3400 6550 50  0000 C CNN
F 1 "Screw_Terminal_01x02" H 3400 6250 50  0000 C CNN
F 2 "myfootprints:PhoenixContact_MKDSN-G_02x5.08mm" H 3400 6450 50  0001 C CNN
F 3 "" H 3400 6450 50  0001 C CNN
	1    3400 6450
	1    0    0    -1  
$EndComp
$Comp
L +5V #PWR020
U 1 1 5A48AD01
P 1300 5850
F 0 "#PWR020" H 1300 5700 50  0001 C CNN
F 1 "+5V" H 1300 5990 50  0000 C CNN
F 2 "" H 1300 5850 50  0001 C CNN
F 3 "" H 1300 5850 50  0001 C CNN
	1    1300 5850
	1    0    0    -1  
$EndComp
$Comp
L GND #PWR021
U 1 1 5A48AD07
P 1300 7150
F 0 "#PWR021" H 1300 6900 50  0001 C CNN
F 1 "GND" H 1300 7000 50  0000 C CNN
F 2 "" H 1300 7150 50  0001 C CNN
F 3 "" H 1300 7150 50  0001 C CNN
	1    1300 7150
	1    0    0    -1  
$EndComp
Wire Wire Line
	1300 6250 1300 6350
Wire Wire Line
	1300 6550 1300 6650
Wire Wire Line
	1300 7050 1300 7150
Wire Wire Line
	1900 6550 2000 6550
Wire Wire Line
	2300 6550 2400 6550
Wire Wire Line
	2100 6300 2950 6300
Wire Wire Line
	2100 6300 2100 6350
Wire Wire Line
	2100 6350 1900 6350
Wire Wire Line
	2550 6600 2950 6600
Wire Wire Line
	2950 6600 2950 6550
Wire Wire Line
	2950 6550 3200 6550
Wire Wire Line
	3200 6450 2950 6450
Wire Wire Line
	2950 6450 2950 6300
Connection ~ 2550 6300
Wire Wire Line
	1000 6850 900  6850
$Comp
L R R14
U 1 1 5A48B68E
P 4250 950
F 0 "R14" V 4330 950 50  0000 C CNN
F 1 "330" V 4250 950 50  0000 C CNN
F 2 "Resistors_SMD:R_1206_HandSoldering" V 4180 950 50  0001 C CNN
F 3 "" H 4250 950 50  0001 C CNN
	1    4250 950 
	1    0    0    -1  
$EndComp
$Comp
L R R18
U 1 1 5A48B694
P 5100 1400
F 0 "R18" V 5180 1400 50  0000 C CNN
F 1 "330" V 5100 1400 50  0000 C CNN
F 2 "Resistors_SMD:R_1206_HandSoldering" V 5030 1400 50  0001 C CNN
F 3 "" H 5100 1400 50  0001 C CNN
	1    5100 1400
	0    1    1    0   
$EndComp
$Comp
L MMBT3904 Q6
U 1 1 5A48B69A
P 4150 1700
F 0 "Q6" H 4350 1775 50  0000 L CNN
F 1 "MMBT3904" H 4350 1700 50  0000 L CNN
F 2 "TO_SOT_Packages_SMD:SOT-23_Handsoldering" H 4350 1625 50  0001 L CIN
F 3 "" H 4150 1700 50  0001 L CNN
	1    4150 1700
	1    0    0    -1  
$EndComp
$Comp
L MOC3052M U6
U 1 1 5A48B6A0
P 4550 1300
F 0 "U6" H 4340 1490 50  0000 L CNN
F 1 "MOC3052M" H 4550 1500 50  0000 L CNN
F 2 "Housings_DIP:DIP-6_W7.62mm_SMDSocket_SmallPads" H 4350 1100 50  0001 L CIN
F 3 "" H 4525 1300 50  0001 L CNN
	1    4550 1300
	1    0    0    -1  
$EndComp
$Comp
L Screw_Terminal_01x02 J7
U 1 1 5A48B6AC
P 6350 1300
F 0 "J7" H 6350 1400 50  0000 C CNN
F 1 "Screw_Terminal_01x02" H 6350 1100 50  0000 C CNN
F 2 "myfootprints:PhoenixContact_MKDSN-G_02x5.08mm" H 6350 1300 50  0001 C CNN
F 3 "" H 6350 1300 50  0001 C CNN
	1    6350 1300
	1    0    0    -1  
$EndComp
$Comp
L +5V #PWR022
U 1 1 5A48B6B2
P 4250 700
F 0 "#PWR022" H 4250 550 50  0001 C CNN
F 1 "+5V" H 4250 840 50  0000 C CNN
F 2 "" H 4250 700 50  0001 C CNN
F 3 "" H 4250 700 50  0001 C CNN
	1    4250 700 
	1    0    0    -1  
$EndComp
$Comp
L GND #PWR023
U 1 1 5A48B6B8
P 4250 2000
F 0 "#PWR023" H 4250 1750 50  0001 C CNN
F 1 "GND" H 4250 1850 50  0000 C CNN
F 2 "" H 4250 2000 50  0001 C CNN
F 3 "" H 4250 2000 50  0001 C CNN
	1    4250 2000
	1    0    0    -1  
$EndComp
Wire Wire Line
	4250 1100 4250 1200
Wire Wire Line
	4250 1400 4250 1500
Wire Wire Line
	4250 1900 4250 2000
Wire Wire Line
	4850 1400 4950 1400
Wire Wire Line
	5250 1400 5350 1400
Wire Wire Line
	5050 1150 5900 1150
Wire Wire Line
	5050 1150 5050 1200
Wire Wire Line
	5050 1200 4850 1200
Wire Wire Line
	5500 1450 5900 1450
Wire Wire Line
	5900 1450 5900 1400
Wire Wire Line
	5900 1400 6150 1400
Wire Wire Line
	6150 1300 5900 1300
Wire Wire Line
	5900 1300 5900 1150
Connection ~ 5500 1150
Wire Wire Line
	3950 1700 3850 1700
$Comp
L R R15
U 1 1 5A48B6CF
P 4250 2650
F 0 "R15" V 4330 2650 50  0000 C CNN
F 1 "330" V 4250 2650 50  0000 C CNN
F 2 "Resistors_SMD:R_1206_HandSoldering" V 4180 2650 50  0001 C CNN
F 3 "" H 4250 2650 50  0001 C CNN
	1    4250 2650
	1    0    0    -1  
$EndComp
$Comp
L R R19
U 1 1 5A48B6D5
P 5100 3100
F 0 "R19" V 5180 3100 50  0000 C CNN
F 1 "330" V 5100 3100 50  0000 C CNN
F 2 "Resistors_SMD:R_1206_HandSoldering" V 5030 3100 50  0001 C CNN
F 3 "" H 5100 3100 50  0001 C CNN
	1    5100 3100
	0    1    1    0   
$EndComp
$Comp
L MMBT3904 Q7
U 1 1 5A48B6DB
P 4150 3400
F 0 "Q7" H 4350 3475 50  0000 L CNN
F 1 "MMBT3904" H 4350 3400 50  0000 L CNN
F 2 "TO_SOT_Packages_SMD:SOT-23_Handsoldering" H 4350 3325 50  0001 L CIN
F 3 "" H 4150 3400 50  0001 L CNN
	1    4150 3400
	1    0    0    -1  
$EndComp
$Comp
L MOC3052M U7
U 1 1 5A48B6E1
P 4550 3000
F 0 "U7" H 4340 3190 50  0000 L CNN
F 1 "MOC3052M" H 4550 3200 50  0000 L CNN
F 2 "Housings_DIP:DIP-6_W7.62mm_SMDSocket_SmallPads" H 4350 2800 50  0001 L CIN
F 3 "" H 4525 3000 50  0001 L CNN
	1    4550 3000
	1    0    0    -1  
$EndComp
$Comp
L Screw_Terminal_01x02 J8
U 1 1 5A48B6ED
P 6350 3000
F 0 "J8" H 6350 3100 50  0000 C CNN
F 1 "Screw_Terminal_01x02" H 6350 2800 50  0000 C CNN
F 2 "myfootprints:PhoenixContact_MKDSN-G_02x5.08mm" H 6350 3000 50  0001 C CNN
F 3 "" H 6350 3000 50  0001 C CNN
	1    6350 3000
	1    0    0    -1  
$EndComp
$Comp
L +5V #PWR024
U 1 1 5A48B6F3
P 4250 2400
F 0 "#PWR024" H 4250 2250 50  0001 C CNN
F 1 "+5V" H 4250 2540 50  0000 C CNN
F 2 "" H 4250 2400 50  0001 C CNN
F 3 "" H 4250 2400 50  0001 C CNN
	1    4250 2400
	1    0    0    -1  
$EndComp
$Comp
L GND #PWR025
U 1 1 5A48B6F9
P 4250 3700
F 0 "#PWR025" H 4250 3450 50  0001 C CNN
F 1 "GND" H 4250 3550 50  0000 C CNN
F 2 "" H 4250 3700 50  0001 C CNN
F 3 "" H 4250 3700 50  0001 C CNN
	1    4250 3700
	1    0    0    -1  
$EndComp
Wire Wire Line
	4250 2800 4250 2900
Wire Wire Line
	4250 3100 4250 3200
Wire Wire Line
	4250 3600 4250 3700
Wire Wire Line
	4850 3100 4950 3100
Wire Wire Line
	5250 3100 5350 3100
Wire Wire Line
	5050 2850 5900 2850
Wire Wire Line
	5050 2850 5050 2900
Wire Wire Line
	5050 2900 4850 2900
Wire Wire Line
	5500 3150 5900 3150
Wire Wire Line
	5900 3150 5900 3100
Wire Wire Line
	5900 3100 6150 3100
Wire Wire Line
	6150 3000 5900 3000
Wire Wire Line
	5900 3000 5900 2850
Connection ~ 5500 2850
Wire Wire Line
	3950 3400 3850 3400
$Comp
L R R16
U 1 1 5A48B70F
P 4250 4350
F 0 "R16" V 4330 4350 50  0000 C CNN
F 1 "330" V 4250 4350 50  0000 C CNN
F 2 "Resistors_SMD:R_1206_HandSoldering" V 4180 4350 50  0001 C CNN
F 3 "" H 4250 4350 50  0001 C CNN
	1    4250 4350
	1    0    0    -1  
$EndComp
$Comp
L R R20
U 1 1 5A48B715
P 5100 4800
F 0 "R20" V 5180 4800 50  0000 C CNN
F 1 "330" V 5100 4800 50  0000 C CNN
F 2 "Resistors_SMD:R_1206_HandSoldering" V 5030 4800 50  0001 C CNN
F 3 "" H 5100 4800 50  0001 C CNN
	1    5100 4800
	0    1    1    0   
$EndComp
$Comp
L MMBT3904 Q8
U 1 1 5A48B71B
P 4150 5100
F 0 "Q8" H 4350 5175 50  0000 L CNN
F 1 "MMBT3904" H 4350 5100 50  0000 L CNN
F 2 "TO_SOT_Packages_SMD:SOT-23_Handsoldering" H 4350 5025 50  0001 L CIN
F 3 "" H 4150 5100 50  0001 L CNN
	1    4150 5100
	1    0    0    -1  
$EndComp
$Comp
L MOC3052M U8
U 1 1 5A48B721
P 4550 4700
F 0 "U8" H 4340 4890 50  0000 L CNN
F 1 "MOC3052M" H 4550 4900 50  0000 L CNN
F 2 "Housings_DIP:DIP-6_W7.62mm_SMDSocket_SmallPads" H 4350 4500 50  0001 L CIN
F 3 "" H 4525 4700 50  0001 L CNN
	1    4550 4700
	1    0    0    -1  
$EndComp
$Comp
L Screw_Terminal_01x02 J9
U 1 1 5A48B72D
P 6350 4700
F 0 "J9" H 6350 4800 50  0000 C CNN
F 1 "Screw_Terminal_01x02" H 6350 4500 50  0000 C CNN
F 2 "myfootprints:PhoenixContact_MKDSN-G_02x5.08mm" H 6350 4700 50  0001 C CNN
F 3 "" H 6350 4700 50  0001 C CNN
	1    6350 4700
	1    0    0    -1  
$EndComp
$Comp
L +5V #PWR026
U 1 1 5A48B733
P 4250 4100
F 0 "#PWR026" H 4250 3950 50  0001 C CNN
F 1 "+5V" H 4250 4240 50  0000 C CNN
F 2 "" H 4250 4100 50  0001 C CNN
F 3 "" H 4250 4100 50  0001 C CNN
	1    4250 4100
	1    0    0    -1  
$EndComp
$Comp
L GND #PWR027
U 1 1 5A48B739
P 4250 5400
F 0 "#PWR027" H 4250 5150 50  0001 C CNN
F 1 "GND" H 4250 5250 50  0000 C CNN
F 2 "" H 4250 5400 50  0001 C CNN
F 3 "" H 4250 5400 50  0001 C CNN
	1    4250 5400
	1    0    0    -1  
$EndComp
Wire Wire Line
	4250 4100 4250 4200
Wire Wire Line
	4250 4500 4250 4600
Wire Wire Line
	4250 4800 4250 4900
Wire Wire Line
	4850 4800 4950 4800
Wire Wire Line
	5250 4800 5350 4800
Wire Wire Line
	5050 4550 5900 4550
Wire Wire Line
	5050 4550 5050 4600
Wire Wire Line
	5050 4600 4850 4600
Wire Wire Line
	5500 4850 5900 4850
Wire Wire Line
	5900 4850 5900 4800
Wire Wire Line
	5900 4800 6150 4800
Wire Wire Line
	6150 4700 5900 4700
Wire Wire Line
	5900 4700 5900 4550
Connection ~ 5500 4550
Wire Wire Line
	3950 5100 3850 5100
$Comp
L R R17
U 1 1 5A48B74F
P 4250 6100
F 0 "R17" V 4330 6100 50  0000 C CNN
F 1 "330" V 4250 6100 50  0000 C CNN
F 2 "Resistors_SMD:R_1206_HandSoldering" V 4180 6100 50  0001 C CNN
F 3 "" H 4250 6100 50  0001 C CNN
	1    4250 6100
	1    0    0    -1  
$EndComp
$Comp
L R R21
U 1 1 5A48B755
P 5100 6550
F 0 "R21" V 5180 6550 50  0000 C CNN
F 1 "330" V 5100 6550 50  0000 C CNN
F 2 "Resistors_SMD:R_1206_HandSoldering" V 5030 6550 50  0001 C CNN
F 3 "" H 5100 6550 50  0001 C CNN
	1    5100 6550
	0    1    1    0   
$EndComp
$Comp
L MMBT3904 Q9
U 1 1 5A48B75B
P 4150 6850
F 0 "Q9" H 4350 6925 50  0000 L CNN
F 1 "MMBT3904" H 4350 6850 50  0000 L CNN
F 2 "TO_SOT_Packages_SMD:SOT-23_Handsoldering" H 4350 6775 50  0001 L CIN
F 3 "" H 4150 6850 50  0001 L CNN
	1    4150 6850
	1    0    0    -1  
$EndComp
$Comp
L MOC3052M U9
U 1 1 5A48B761
P 4550 6450
F 0 "U9" H 4340 6640 50  0000 L CNN
F 1 "MOC3052M" H 4550 6650 50  0000 L CNN
F 2 "Housings_DIP:DIP-6_W7.62mm_SMDSocket_SmallPads" H 4350 6250 50  0001 L CIN
F 3 "" H 4525 6450 50  0001 L CNN
	1    4550 6450
	1    0    0    -1  
$EndComp
$Comp
L Screw_Terminal_01x02 J10
U 1 1 5A48B76D
P 6350 6450
F 0 "J10" H 6350 6550 50  0000 C CNN
F 1 "Screw_Terminal_01x02" H 6350 6250 50  0000 C CNN
F 2 "myfootprints:PhoenixContact_MKDSN-G_02x5.08mm" H 6350 6450 50  0001 C CNN
F 3 "" H 6350 6450 50  0001 C CNN
	1    6350 6450
	1    0    0    -1  
$EndComp
$Comp
L +5V #PWR028
U 1 1 5A48B773
P 4250 5850
F 0 "#PWR028" H 4250 5700 50  0001 C CNN
F 1 "+5V" H 4250 5990 50  0000 C CNN
F 2 "" H 4250 5850 50  0001 C CNN
F 3 "" H 4250 5850 50  0001 C CNN
	1    4250 5850
	1    0    0    -1  
$EndComp
$Comp
L GND #PWR029
U 1 1 5A48B779
P 4250 7150
F 0 "#PWR029" H 4250 6900 50  0001 C CNN
F 1 "GND" H 4250 7000 50  0000 C CNN
F 2 "" H 4250 7150 50  0001 C CNN
F 3 "" H 4250 7150 50  0001 C CNN
	1    4250 7150
	1    0    0    -1  
$EndComp
Wire Wire Line
	4250 5850 4250 5950
Wire Wire Line
	4250 6250 4250 6350
Wire Wire Line
	4250 6550 4250 6650
Wire Wire Line
	4250 7050 4250 7150
Wire Wire Line
	4850 6550 4950 6550
Wire Wire Line
	5250 6550 5350 6550
Wire Wire Line
	5050 6300 5900 6300
Wire Wire Line
	5050 6300 5050 6350
Wire Wire Line
	5050 6350 4850 6350
Wire Wire Line
	5500 6600 5900 6600
Wire Wire Line
	5900 6600 5900 6550
Wire Wire Line
	5900 6550 6150 6550
Wire Wire Line
	6150 6450 5900 6450
Wire Wire Line
	5900 6450 5900 6300
Connection ~ 5500 6300
Wire Wire Line
	3950 6850 3850 6850
$Comp
L R R22
U 1 1 5A48BF93
P 7200 950
F 0 "R22" V 7280 950 50  0000 C CNN
F 1 "330" V 7200 950 50  0000 C CNN
F 2 "Resistors_SMD:R_1206_HandSoldering" V 7130 950 50  0001 C CNN
F 3 "" H 7200 950 50  0001 C CNN
	1    7200 950 
	1    0    0    -1  
$EndComp
$Comp
L R R25
U 1 1 5A48BF99
P 8050 1400
F 0 "R25" V 8130 1400 50  0000 C CNN
F 1 "330" V 8050 1400 50  0000 C CNN
F 2 "Resistors_SMD:R_1206_HandSoldering" V 7980 1400 50  0001 C CNN
F 3 "" H 8050 1400 50  0001 C CNN
	1    8050 1400
	0    1    1    0   
$EndComp
$Comp
L MMBT3904 Q10
U 1 1 5A48BF9F
P 7100 1700
F 0 "Q10" H 7300 1775 50  0000 L CNN
F 1 "MMBT3904" H 7300 1700 50  0000 L CNN
F 2 "TO_SOT_Packages_SMD:SOT-23_Handsoldering" H 7300 1625 50  0001 L CIN
F 3 "" H 7100 1700 50  0001 L CNN
	1    7100 1700
	1    0    0    -1  
$EndComp
$Comp
L MOC3052M U10
U 1 1 5A48BFA5
P 7500 1300
F 0 "U10" H 7290 1490 50  0000 L CNN
F 1 "MOC3052M" H 7500 1500 50  0000 L CNN
F 2 "Housings_DIP:DIP-6_W7.62mm_SMDSocket_SmallPads" H 7300 1100 50  0001 L CIN
F 3 "" H 7475 1300 50  0001 L CNN
	1    7500 1300
	1    0    0    -1  
$EndComp
$Comp
L Screw_Terminal_01x02 J11
U 1 1 5A48BFB1
P 9300 1300
F 0 "J11" H 9300 1400 50  0000 C CNN
F 1 "Screw_Terminal_01x02" H 9300 1100 50  0000 C CNN
F 2 "myfootprints:PhoenixContact_MKDSN-G_02x5.08mm" H 9300 1300 50  0001 C CNN
F 3 "" H 9300 1300 50  0001 C CNN
	1    9300 1300
	1    0    0    -1  
$EndComp
$Comp
L +5V #PWR030
U 1 1 5A48BFB7
P 7200 700
F 0 "#PWR030" H 7200 550 50  0001 C CNN
F 1 "+5V" H 7200 840 50  0000 C CNN
F 2 "" H 7200 700 50  0001 C CNN
F 3 "" H 7200 700 50  0001 C CNN
	1    7200 700 
	1    0    0    -1  
$EndComp
$Comp
L GND #PWR031
U 1 1 5A48BFBD
P 7200 2000
F 0 "#PWR031" H 7200 1750 50  0001 C CNN
F 1 "GND" H 7200 1850 50  0000 C CNN
F 2 "" H 7200 2000 50  0001 C CNN
F 3 "" H 7200 2000 50  0001 C CNN
	1    7200 2000
	1    0    0    -1  
$EndComp
Wire Wire Line
	7200 700  7200 800 
Wire Wire Line
	7200 1100 7200 1200
Wire Wire Line
	7200 1400 7200 1500
Wire Wire Line
	7800 1400 7900 1400
Wire Wire Line
	8200 1400 8300 1400
Wire Wire Line
	8000 1150 8850 1150
Wire Wire Line
	8000 1150 8000 1200
Wire Wire Line
	8000 1200 7800 1200
Wire Wire Line
	8450 1450 8850 1450
Wire Wire Line
	8850 1450 8850 1400
Wire Wire Line
	8850 1400 9100 1400
Wire Wire Line
	9100 1300 8850 1300
Wire Wire Line
	8850 1300 8850 1150
Connection ~ 8450 1150
Wire Wire Line
	6900 1700 6800 1700
$Comp
L R R23
U 1 1 5A48C1DD
P 7200 2650
F 0 "R23" V 7280 2650 50  0000 C CNN
F 1 "330" V 7200 2650 50  0000 C CNN
F 2 "Resistors_SMD:R_1206_HandSoldering" V 7130 2650 50  0001 C CNN
F 3 "" H 7200 2650 50  0001 C CNN
	1    7200 2650
	1    0    0    -1  
$EndComp
$Comp
L R R26
U 1 1 5A48C1E3
P 8050 3100
F 0 "R26" V 8130 3100 50  0000 C CNN
F 1 "330" V 8050 3100 50  0000 C CNN
F 2 "Resistors_SMD:R_1206_HandSoldering" V 7980 3100 50  0001 C CNN
F 3 "" H 8050 3100 50  0001 C CNN
	1    8050 3100
	0    1    1    0   
$EndComp
$Comp
L MMBT3904 Q11
U 1 1 5A48C1E9
P 7100 3400
F 0 "Q11" H 7300 3475 50  0000 L CNN
F 1 "MMBT3904" H 7300 3400 50  0000 L CNN
F 2 "TO_SOT_Packages_SMD:SOT-23_Handsoldering" H 7300 3325 50  0001 L CIN
F 3 "" H 7100 3400 50  0001 L CNN
	1    7100 3400
	1    0    0    -1  
$EndComp
$Comp
L MOC3052M U11
U 1 1 5A48C1EF
P 7500 3000
F 0 "U11" H 7290 3190 50  0000 L CNN
F 1 "MOC3052M" H 7500 3200 50  0000 L CNN
F 2 "Housings_DIP:DIP-6_W7.62mm_SMDSocket_SmallPads" H 7300 2800 50  0001 L CIN
F 3 "" H 7475 3000 50  0001 L CNN
	1    7500 3000
	1    0    0    -1  
$EndComp
$Comp
L Screw_Terminal_01x02 J12
U 1 1 5A48C1FB
P 9300 3000
F 0 "J12" H 9300 3100 50  0000 C CNN
F 1 "Screw_Terminal_01x02" H 9300 2800 50  0000 C CNN
F 2 "myfootprints:PhoenixContact_MKDSN-G_02x5.08mm" H 9300 3000 50  0001 C CNN
F 3 "" H 9300 3000 50  0001 C CNN
	1    9300 3000
	1    0    0    -1  
$EndComp
$Comp
L +5V #PWR032
U 1 1 5A48C201
P 7200 2400
F 0 "#PWR032" H 7200 2250 50  0001 C CNN
F 1 "+5V" H 7200 2540 50  0000 C CNN
F 2 "" H 7200 2400 50  0001 C CNN
F 3 "" H 7200 2400 50  0001 C CNN
	1    7200 2400
	1    0    0    -1  
$EndComp
$Comp
L GND #PWR033
U 1 1 5A48C207
P 7200 3700
F 0 "#PWR033" H 7200 3450 50  0001 C CNN
F 1 "GND" H 7200 3550 50  0000 C CNN
F 2 "" H 7200 3700 50  0001 C CNN
F 3 "" H 7200 3700 50  0001 C CNN
	1    7200 3700
	1    0    0    -1  
$EndComp
Wire Wire Line
	7200 2400 7200 2500
Wire Wire Line
	7200 2800 7200 2900
Wire Wire Line
	7200 3100 7200 3200
Wire Wire Line
	7200 3600 7200 3700
Wire Wire Line
	7800 3100 7900 3100
Wire Wire Line
	8200 3100 8300 3100
Wire Wire Line
	8000 2850 8850 2850
Wire Wire Line
	8000 2850 8000 2900
Wire Wire Line
	8000 2900 7800 2900
Wire Wire Line
	8450 3150 8850 3150
Wire Wire Line
	8850 3150 8850 3100
Wire Wire Line
	8850 3100 9100 3100
Wire Wire Line
	9100 3000 8850 3000
Wire Wire Line
	8850 3000 8850 2850
Connection ~ 8450 2850
Wire Wire Line
	6900 3400 6800 3400
$Comp
L R R24
U 1 1 5A48C337
P 7200 4350
F 0 "R24" V 7280 4350 50  0000 C CNN
F 1 "330" V 7200 4350 50  0000 C CNN
F 2 "Resistors_SMD:R_1206_HandSoldering" V 7130 4350 50  0001 C CNN
F 3 "" H 7200 4350 50  0001 C CNN
	1    7200 4350
	1    0    0    -1  
$EndComp
$Comp
L R R27
U 1 1 5A48C33D
P 8050 4800
F 0 "R27" V 8130 4800 50  0000 C CNN
F 1 "330" V 8050 4800 50  0000 C CNN
F 2 "Resistors_SMD:R_1206_HandSoldering" V 7980 4800 50  0001 C CNN
F 3 "" H 8050 4800 50  0001 C CNN
	1    8050 4800
	0    1    1    0   
$EndComp
$Comp
L MMBT3904 Q12
U 1 1 5A48C343
P 7100 5100
F 0 "Q12" H 7300 5175 50  0000 L CNN
F 1 "MMBT3904" H 7300 5100 50  0000 L CNN
F 2 "TO_SOT_Packages_SMD:SOT-23_Handsoldering" H 7300 5025 50  0001 L CIN
F 3 "" H 7100 5100 50  0001 L CNN
	1    7100 5100
	1    0    0    -1  
$EndComp
$Comp
L MOC3052M U12
U 1 1 5A48C349
P 7500 4700
F 0 "U12" H 7290 4890 50  0000 L CNN
F 1 "MOC3052M" H 7500 4900 50  0000 L CNN
F 2 "Housings_DIP:DIP-6_W7.62mm_SMDSocket_SmallPads" H 7300 4500 50  0001 L CIN
F 3 "" H 7475 4700 50  0001 L CNN
	1    7500 4700
	1    0    0    -1  
$EndComp
$Comp
L Screw_Terminal_01x02 J13
U 1 1 5A48C355
P 9300 4700
F 0 "J13" H 9300 4800 50  0000 C CNN
F 1 "Screw_Terminal_01x02" H 9300 4500 50  0000 C CNN
F 2 "myfootprints:PhoenixContact_MKDSN-G_02x5.08mm" H 9300 4700 50  0001 C CNN
F 3 "" H 9300 4700 50  0001 C CNN
	1    9300 4700
	1    0    0    -1  
$EndComp
$Comp
L +5V #PWR034
U 1 1 5A48C35B
P 7200 4100
F 0 "#PWR034" H 7200 3950 50  0001 C CNN
F 1 "+5V" H 7200 4240 50  0000 C CNN
F 2 "" H 7200 4100 50  0001 C CNN
F 3 "" H 7200 4100 50  0001 C CNN
	1    7200 4100
	1    0    0    -1  
$EndComp
$Comp
L GND #PWR035
U 1 1 5A48C361
P 7200 5400
F 0 "#PWR035" H 7200 5150 50  0001 C CNN
F 1 "GND" H 7200 5250 50  0000 C CNN
F 2 "" H 7200 5400 50  0001 C CNN
F 3 "" H 7200 5400 50  0001 C CNN
	1    7200 5400
	1    0    0    -1  
$EndComp
Wire Wire Line
	7200 4100 7200 4200
Wire Wire Line
	7200 4500 7200 4600
Wire Wire Line
	7200 4800 7200 4900
Wire Wire Line
	7800 4800 7900 4800
Wire Wire Line
	8200 4800 8300 4800
Wire Wire Line
	8000 4550 8850 4550
Wire Wire Line
	8000 4550 8000 4600
Wire Wire Line
	8000 4600 7800 4600
Wire Wire Line
	8450 4850 8850 4850
Wire Wire Line
	8850 4850 8850 4800
Wire Wire Line
	8850 4800 9100 4800
Wire Wire Line
	9100 4700 8850 4700
Wire Wire Line
	8850 4700 8850 4550
Connection ~ 8450 4550
Wire Wire Line
	6900 5100 6800 5100
$Comp
L R R28
U 1 1 5A48C695
P 8200 5350
F 0 "R28" V 8280 5350 50  0000 C CNN
F 1 "330" V 8200 5350 50  0000 C CNN
F 2 "Resistors_SMD:R_1206_HandSoldering" V 8130 5350 50  0001 C CNN
F 3 "" H 8200 5350 50  0001 C CNN
	1    8200 5350
	1    0    0    -1  
$EndComp
$Comp
L R R29
U 1 1 5A48C69B
P 9050 5750
F 0 "R29" V 9130 5750 50  0000 C CNN
F 1 "330" V 9050 5750 50  0000 C CNN
F 2 "Resistors_SMD:R_1206_HandSoldering" V 8980 5750 50  0001 C CNN
F 3 "" H 9050 5750 50  0001 C CNN
	1    9050 5750
	0    1    1    0   
$EndComp
$Comp
L MMBT3904 Q13
U 1 1 5A48C6A1
P 8100 6050
F 0 "Q13" H 8300 6125 50  0000 L CNN
F 1 "MMBT3904" H 8300 6050 50  0000 L CNN
F 2 "TO_SOT_Packages_SMD:SOT-23_Handsoldering" H 8300 5975 50  0001 L CIN
F 3 "" H 8100 6050 50  0001 L CNN
	1    8100 6050
	1    0    0    -1  
$EndComp
$Comp
L MOC3052M U13
U 1 1 5A48C6A7
P 8500 5650
F 0 "U13" H 8290 5840 50  0000 L CNN
F 1 "MOC3052M" H 8500 5850 50  0000 L CNN
F 2 "Housings_DIP:DIP-6_W7.62mm_SMDSocket_SmallPads" H 8300 5450 50  0001 L CIN
F 3 "" H 8475 5650 50  0001 L CNN
	1    8500 5650
	1    0    0    -1  
$EndComp
$Comp
L Screw_Terminal_01x02 J14
U 1 1 5A48C6B3
P 10300 5650
F 0 "J14" H 10300 5750 50  0000 C CNN
F 1 "Screw_Terminal_01x02" H 10300 5450 50  0000 C CNN
F 2 "myfootprints:PhoenixContact_MKDSN-G_02x5.08mm" H 10300 5650 50  0001 C CNN
F 3 "" H 10300 5650 50  0001 C CNN
	1    10300 5650
	1    0    0    -1  
$EndComp
$Comp
L +5V #PWR036
U 1 1 5A48C6B9
P 8200 5150
F 0 "#PWR036" H 8200 5000 50  0001 C CNN
F 1 "+5V" H 8200 5290 50  0000 C CNN
F 2 "" H 8200 5150 50  0001 C CNN
F 3 "" H 8200 5150 50  0001 C CNN
	1    8200 5150
	1    0    0    -1  
$EndComp
$Comp
L GND #PWR037
U 1 1 5A48C6BF
P 8200 6300
F 0 "#PWR037" H 8200 6050 50  0001 C CNN
F 1 "GND" H 8200 6150 50  0000 C CNN
F 2 "" H 8200 6300 50  0001 C CNN
F 3 "" H 8200 6300 50  0001 C CNN
	1    8200 6300
	1    0    0    -1  
$EndComp
Wire Wire Line
	8200 5750 8200 5850
Wire Wire Line
	8800 5750 8900 5750
Wire Wire Line
	9200 5750 9300 5750
Wire Wire Line
	9000 5500 9850 5500
Wire Wire Line
	9000 5500 9000 5550
Wire Wire Line
	9000 5550 8800 5550
Wire Wire Line
	9450 5800 9850 5800
Wire Wire Line
	9850 5800 9850 5750
Wire Wire Line
	9850 5750 10100 5750
Wire Wire Line
	10100 5650 9850 5650
Wire Wire Line
	9850 5650 9850 5500
Connection ~ 9450 5500
Wire Wire Line
	7900 6050 7800 6050
Wire Wire Line
	8200 5150 8200 5200
Text HLabel 900  6850 0    60   Input ~ 0
4
Text HLabel 3850 1700 0    60   Input ~ 0
5(**)
Text HLabel 3850 3400 0    60   Input ~ 0
6(**)
Text HLabel 3850 5100 0    60   Input ~ 0
7
Text HLabel 3850 6850 0    60   Input ~ 0
8
Text HLabel 6800 1700 0    60   Input ~ 0
9(**)
Text HLabel 6800 3400 0    60   Input ~ 0
10(**/SS)
Text HLabel 6800 5100 0    60   Input ~ 0
11(**/MOSI)
Text HLabel 7800 6050 0    60   Input ~ 0
12(MISO)
Text HLabel 800  3400 0    60   Input ~ 0
1(Tx)
Text HLabel 800  1700 0    60   Input ~ 0
0(Rx)
Wire Wire Line
	8200 5500 8200 5550
Wire Wire Line
	7200 5300 7200 5400
Wire Wire Line
	1300 4200 1300 4100
Wire Wire Line
	7200 1900 7200 2000
Wire Wire Line
	4250 2500 4250 2400
Wire Wire Line
	8200 6250 8200 6300
Wire Wire Line
	1300 5950 1300 5850
Wire Wire Line
	4250 700  4250 800 
Wire Wire Line
	1300 5300 1300 5400
Wire Wire Line
	4250 5300 4250 5400
$Comp
L BT134W-600D D6
U 1 1 5A4ADFD0
P 2550 1300
F 0 "D6" H 2675 1325 50  0000 L CNN
F 1 "BT134W-600D" H 2675 1250 50  0000 L CNN
F 2 "TO_SOT_Packages_SMD:SOT-223-3_TabPin2" V 2625 1325 50  0001 C CNN
F 3 "" V 2550 1300 50  0001 C CNN
	1    2550 1300
	1    0    0    -1  
$EndComp
$Comp
L BT134W-600D D7
U 1 1 5A4AE4AC
P 2550 3000
F 0 "D7" H 2675 3025 50  0000 L CNN
F 1 "BT134W-600D" H 2675 2950 50  0000 L CNN
F 2 "TO_SOT_Packages_SMD:SOT-223-3_TabPin2" V 2625 3025 50  0001 C CNN
F 3 "" V 2550 3000 50  0001 C CNN
	1    2550 3000
	1    0    0    -1  
$EndComp
$Comp
L BT134W-600D D8
U 1 1 5A4AE596
P 2550 4700
F 0 "D8" H 2675 4725 50  0000 L CNN
F 1 "BT134W-600D" H 2675 4650 50  0000 L CNN
F 2 "TO_SOT_Packages_SMD:SOT-223-3_TabPin2" V 2625 4725 50  0001 C CNN
F 3 "" V 2550 4700 50  0001 C CNN
	1    2550 4700
	1    0    0    -1  
$EndComp
$Comp
L BT134W-600D D9
U 1 1 5A4AE67F
P 2550 6450
F 0 "D9" H 2675 6475 50  0000 L CNN
F 1 "BT134W-600D" H 2675 6400 50  0000 L CNN
F 2 "TO_SOT_Packages_SMD:SOT-223-3_TabPin2" V 2625 6475 50  0001 C CNN
F 3 "" V 2550 6450 50  0001 C CNN
	1    2550 6450
	1    0    0    -1  
$EndComp
$Comp
L BT134W-600D D13
U 1 1 5A4AE9C1
P 5500 6450
F 0 "D13" H 5625 6475 50  0000 L CNN
F 1 "BT134W-600D" H 5625 6400 50  0000 L CNN
F 2 "TO_SOT_Packages_SMD:SOT-223-3_TabPin2" V 5575 6475 50  0001 C CNN
F 3 "" V 5500 6450 50  0001 C CNN
	1    5500 6450
	1    0    0    -1  
$EndComp
$Comp
L BT134W-600D D12
U 1 1 5A4AEA9E
P 5500 4700
F 0 "D12" H 5625 4725 50  0000 L CNN
F 1 "BT134W-600D" H 5625 4650 50  0000 L CNN
F 2 "TO_SOT_Packages_SMD:SOT-223-3_TabPin2" V 5575 4725 50  0001 C CNN
F 3 "" V 5500 4700 50  0001 C CNN
	1    5500 4700
	1    0    0    -1  
$EndComp
$Comp
L BT134W-600D D11
U 1 1 5A4AEC48
P 5500 3000
F 0 "D11" H 5625 3025 50  0000 L CNN
F 1 "BT134W-600D" H 5625 2950 50  0000 L CNN
F 2 "TO_SOT_Packages_SMD:SOT-223-3_TabPin2" V 5575 3025 50  0001 C CNN
F 3 "" V 5500 3000 50  0001 C CNN
	1    5500 3000
	1    0    0    -1  
$EndComp
$Comp
L BT134W-600D D10
U 1 1 5A4AED6C
P 5500 1300
F 0 "D10" H 5625 1325 50  0000 L CNN
F 1 "BT134W-600D" H 5625 1250 50  0000 L CNN
F 2 "TO_SOT_Packages_SMD:SOT-223-3_TabPin2" V 5575 1325 50  0001 C CNN
F 3 "" V 5500 1300 50  0001 C CNN
	1    5500 1300
	1    0    0    -1  
$EndComp
$Comp
L BT134W-600D D14
U 1 1 5A4AEE96
P 8450 1300
F 0 "D14" H 8575 1325 50  0000 L CNN
F 1 "BT134W-600D" H 8575 1250 50  0000 L CNN
F 2 "TO_SOT_Packages_SMD:SOT-223-3_TabPin2" V 8525 1325 50  0001 C CNN
F 3 "" V 8450 1300 50  0001 C CNN
	1    8450 1300
	1    0    0    -1  
$EndComp
$Comp
L BT134W-600D D15
U 1 1 5A4AEF91
P 8450 3000
F 0 "D15" H 8575 3025 50  0000 L CNN
F 1 "BT134W-600D" H 8575 2950 50  0000 L CNN
F 2 "TO_SOT_Packages_SMD:SOT-223-3_TabPin2" V 8525 3025 50  0001 C CNN
F 3 "" V 8450 3000 50  0001 C CNN
	1    8450 3000
	1    0    0    -1  
$EndComp
$Comp
L BT134W-600D D16
U 1 1 5A4AF26F
P 8450 4700
F 0 "D16" H 8575 4725 50  0000 L CNN
F 1 "BT134W-600D" H 8575 4650 50  0000 L CNN
F 2 "TO_SOT_Packages_SMD:SOT-223-3_TabPin2" V 8525 4725 50  0001 C CNN
F 3 "" V 8450 4700 50  0001 C CNN
	1    8450 4700
	1    0    0    -1  
$EndComp
$Comp
L BT134W-600D D17
U 1 1 5A4AF35C
P 9450 5650
F 0 "D17" H 9575 5675 50  0000 L CNN
F 1 "BT134W-600D" H 9575 5600 50  0000 L CNN
F 2 "TO_SOT_Packages_SMD:SOT-223-3_TabPin2" V 9525 5675 50  0001 C CNN
F 3 "" V 9450 5650 50  0001 C CNN
	1    9450 5650
	1    0    0    -1  
$EndComp
$Comp
L Conn_01x02 J16
U 1 1 5A4D2C68
P 850 1500
F 0 "J16" H 850 1600 50  0000 C CNN
F 1 "Conn_01x02" H 950 1300 50  0000 C CNN
F 2 "Socket_Strips:Socket_Strip_Straight_1x02_Pitch2.54mm" H 850 1500 50  0001 C CNN
F 3 "" H 850 1500 50  0001 C CNN
	1    850  1500
	0    -1   -1   0   
$EndComp
Wire Wire Line
	950  1700 1000 1700
Wire Wire Line
	850  1700 800  1700
$Comp
L Conn_01x02 J17
U 1 1 5A4D3A42
P 850 3200
F 0 "J17" H 850 3300 50  0000 C CNN
F 1 "Conn_01x02" H 950 3000 50  0000 C CNN
F 2 "Socket_Strips:Socket_Strip_Straight_1x02_Pitch2.54mm" H 850 3200 50  0001 C CNN
F 3 "" H 850 3200 50  0001 C CNN
	1    850  3200
	0    -1   -1   0   
$EndComp
Wire Wire Line
	800  3400 850  3400
Wire Wire Line
	950  3400 1000 3400
$EndSCHEMATC
